%TF.GenerationSoftware,KiCad,Pcbnew,5.0.2-bee76a0~70~ubuntu18.04.1*%
%TF.CreationDate,2019-09-08T14:19:54+02:00*%
%TF.ProjectId,PflanzenClient_D1Mini_LiFePo4,50666c61-6e7a-4656-9e43-6c69656e745f,rev?*%
%TF.SameCoordinates,Original*%
%TF.FileFunction,Soldermask,Top*%
%TF.FilePolarity,Negative*%
%FSLAX46Y46*%
G04 Gerber Fmt 4.6, Leading zero omitted, Abs format (unit mm)*
G04 Created by KiCad (PCBNEW 5.0.2-bee76a0~70~ubuntu18.04.1) date So 08 Sep 2019 14:19:54 CEST*
%MOMM*%
%LPD*%
G01*
G04 APERTURE LIST*
%ADD10C,0.150000*%
G04 APERTURE END LIST*
D10*
G36*
X112776000Y-96393000D02*
X110744000Y-96393000D01*
X110744000Y-94361000D01*
X112776000Y-94361000D01*
X112776000Y-96393000D01*
G37*
X112776000Y-96393000D02*
X110744000Y-96393000D01*
X110744000Y-94361000D01*
X112776000Y-94361000D01*
X112776000Y-96393000D01*
G36*
X112776000Y-93726000D02*
X110744000Y-93726000D01*
X110744000Y-91694000D01*
X112776000Y-91694000D01*
X112776000Y-93726000D01*
G37*
X112776000Y-93726000D02*
X110744000Y-93726000D01*
X110744000Y-91694000D01*
X112776000Y-91694000D01*
X112776000Y-93726000D01*
G36*
X166553636Y-104171019D02*
X166734903Y-104207075D01*
X166962571Y-104301378D01*
X167166542Y-104437668D01*
X167167469Y-104438287D01*
X167341713Y-104612531D01*
X167341715Y-104612534D01*
X167478622Y-104817429D01*
X167572925Y-105045097D01*
X167621000Y-105286787D01*
X167621000Y-105533213D01*
X167572925Y-105774903D01*
X167478622Y-106002571D01*
X167342332Y-106206542D01*
X167341713Y-106207469D01*
X167167469Y-106381713D01*
X167167466Y-106381715D01*
X166962571Y-106518622D01*
X166734903Y-106612925D01*
X166553636Y-106648981D01*
X166493214Y-106661000D01*
X166246786Y-106661000D01*
X166186364Y-106648981D01*
X166005097Y-106612925D01*
X165777429Y-106518622D01*
X165572534Y-106381715D01*
X165572531Y-106381713D01*
X165398287Y-106207469D01*
X165397668Y-106206542D01*
X165261378Y-106002571D01*
X165167075Y-105774903D01*
X165119000Y-105533213D01*
X165119000Y-105286787D01*
X165167075Y-105045097D01*
X165261378Y-104817429D01*
X165398285Y-104612534D01*
X165398287Y-104612531D01*
X165572531Y-104438287D01*
X165573458Y-104437668D01*
X165777429Y-104301378D01*
X166005097Y-104207075D01*
X166186365Y-104171019D01*
X166246786Y-104159000D01*
X166493214Y-104159000D01*
X166553636Y-104171019D01*
X166553636Y-104171019D01*
G37*
G36*
X141153636Y-104171019D02*
X141334903Y-104207075D01*
X141562571Y-104301378D01*
X141766542Y-104437668D01*
X141767469Y-104438287D01*
X141941713Y-104612531D01*
X141941715Y-104612534D01*
X142078622Y-104817429D01*
X142172925Y-105045097D01*
X142221000Y-105286787D01*
X142221000Y-105533213D01*
X142172925Y-105774903D01*
X142078622Y-106002571D01*
X141942332Y-106206542D01*
X141941713Y-106207469D01*
X141767469Y-106381713D01*
X141767466Y-106381715D01*
X141562571Y-106518622D01*
X141334903Y-106612925D01*
X141153636Y-106648981D01*
X141093214Y-106661000D01*
X140846786Y-106661000D01*
X140786364Y-106648981D01*
X140605097Y-106612925D01*
X140377429Y-106518622D01*
X140172534Y-106381715D01*
X140172531Y-106381713D01*
X139998287Y-106207469D01*
X139997668Y-106206542D01*
X139861378Y-106002571D01*
X139767075Y-105774903D01*
X139719000Y-105533213D01*
X139719000Y-105286787D01*
X139767075Y-105045097D01*
X139861378Y-104817429D01*
X139998285Y-104612534D01*
X139998287Y-104612531D01*
X140172531Y-104438287D01*
X140173458Y-104437668D01*
X140377429Y-104301378D01*
X140605097Y-104207075D01*
X140786365Y-104171019D01*
X140846786Y-104159000D01*
X141093214Y-104159000D01*
X141153636Y-104171019D01*
X141153636Y-104171019D01*
G37*
G36*
X123356821Y-103101313D02*
X123356824Y-103101314D01*
X123356825Y-103101314D01*
X123517239Y-103149975D01*
X123517241Y-103149976D01*
X123517244Y-103149977D01*
X123665078Y-103228995D01*
X123794659Y-103335341D01*
X123901005Y-103464922D01*
X123980023Y-103612756D01*
X123980024Y-103612759D01*
X123980025Y-103612761D01*
X124028686Y-103773175D01*
X124028686Y-103773178D01*
X124028687Y-103773180D01*
X124041000Y-103898197D01*
X124041000Y-104381804D01*
X124028687Y-104506821D01*
X124028686Y-104506824D01*
X124028686Y-104506825D01*
X123987381Y-104642991D01*
X123980023Y-104667244D01*
X123901005Y-104815078D01*
X123794659Y-104944659D01*
X123665078Y-105051005D01*
X123517243Y-105130023D01*
X123517240Y-105130024D01*
X123517238Y-105130025D01*
X123356824Y-105178686D01*
X123356823Y-105178686D01*
X123356820Y-105178687D01*
X123190000Y-105195117D01*
X123023179Y-105178687D01*
X123023176Y-105178686D01*
X123023175Y-105178686D01*
X122862761Y-105130025D01*
X122862759Y-105130024D01*
X122862756Y-105130023D01*
X122714922Y-105051005D01*
X122585341Y-104944659D01*
X122478995Y-104815078D01*
X122399977Y-104667243D01*
X122392620Y-104642989D01*
X122351314Y-104506824D01*
X122351314Y-104506823D01*
X122351313Y-104506820D01*
X122339000Y-104381803D01*
X122339000Y-103898196D01*
X122351313Y-103773179D01*
X122392619Y-103637011D01*
X122399975Y-103612761D01*
X122399976Y-103612759D01*
X122399977Y-103612756D01*
X122478993Y-103464926D01*
X122478996Y-103464922D01*
X122585342Y-103335341D01*
X122585344Y-103335339D01*
X122714923Y-103228995D01*
X122862757Y-103149977D01*
X122862760Y-103149976D01*
X122862762Y-103149975D01*
X123023176Y-103101314D01*
X123023177Y-103101314D01*
X123023180Y-103101313D01*
X123190000Y-103084883D01*
X123356821Y-103101313D01*
X123356821Y-103101313D01*
G37*
G36*
X120816821Y-103101313D02*
X120816824Y-103101314D01*
X120816825Y-103101314D01*
X120977239Y-103149975D01*
X120977241Y-103149976D01*
X120977244Y-103149977D01*
X121125078Y-103228995D01*
X121254659Y-103335341D01*
X121361005Y-103464922D01*
X121440023Y-103612756D01*
X121440024Y-103612759D01*
X121440025Y-103612761D01*
X121488686Y-103773175D01*
X121488686Y-103773178D01*
X121488687Y-103773180D01*
X121501000Y-103898197D01*
X121501000Y-104381804D01*
X121488687Y-104506821D01*
X121488686Y-104506824D01*
X121488686Y-104506825D01*
X121447381Y-104642991D01*
X121440023Y-104667244D01*
X121361005Y-104815078D01*
X121254659Y-104944659D01*
X121125078Y-105051005D01*
X120977243Y-105130023D01*
X120977240Y-105130024D01*
X120977238Y-105130025D01*
X120816824Y-105178686D01*
X120816823Y-105178686D01*
X120816820Y-105178687D01*
X120650000Y-105195117D01*
X120483179Y-105178687D01*
X120483176Y-105178686D01*
X120483175Y-105178686D01*
X120322761Y-105130025D01*
X120322759Y-105130024D01*
X120322756Y-105130023D01*
X120174922Y-105051005D01*
X120045341Y-104944659D01*
X119938995Y-104815078D01*
X119859977Y-104667243D01*
X119852620Y-104642989D01*
X119811314Y-104506824D01*
X119811314Y-104506823D01*
X119811313Y-104506820D01*
X119799000Y-104381803D01*
X119799000Y-103898196D01*
X119811313Y-103773179D01*
X119852619Y-103637011D01*
X119859975Y-103612761D01*
X119859976Y-103612759D01*
X119859977Y-103612756D01*
X119938993Y-103464926D01*
X119938996Y-103464922D01*
X120045342Y-103335341D01*
X120045344Y-103335339D01*
X120174923Y-103228995D01*
X120322757Y-103149977D01*
X120322760Y-103149976D01*
X120322762Y-103149975D01*
X120483176Y-103101314D01*
X120483177Y-103101314D01*
X120483180Y-103101313D01*
X120650000Y-103084883D01*
X120816821Y-103101313D01*
X120816821Y-103101313D01*
G37*
G36*
X118276821Y-103101313D02*
X118276824Y-103101314D01*
X118276825Y-103101314D01*
X118437239Y-103149975D01*
X118437241Y-103149976D01*
X118437244Y-103149977D01*
X118585078Y-103228995D01*
X118714659Y-103335341D01*
X118821005Y-103464922D01*
X118900023Y-103612756D01*
X118900024Y-103612759D01*
X118900025Y-103612761D01*
X118948686Y-103773175D01*
X118948686Y-103773178D01*
X118948687Y-103773180D01*
X118961000Y-103898197D01*
X118961000Y-104381804D01*
X118948687Y-104506821D01*
X118948686Y-104506824D01*
X118948686Y-104506825D01*
X118907381Y-104642991D01*
X118900023Y-104667244D01*
X118821005Y-104815078D01*
X118714659Y-104944659D01*
X118585078Y-105051005D01*
X118437243Y-105130023D01*
X118437240Y-105130024D01*
X118437238Y-105130025D01*
X118276824Y-105178686D01*
X118276823Y-105178686D01*
X118276820Y-105178687D01*
X118110000Y-105195117D01*
X117943179Y-105178687D01*
X117943176Y-105178686D01*
X117943175Y-105178686D01*
X117782761Y-105130025D01*
X117782759Y-105130024D01*
X117782756Y-105130023D01*
X117634922Y-105051005D01*
X117505341Y-104944659D01*
X117398995Y-104815078D01*
X117319977Y-104667243D01*
X117312620Y-104642989D01*
X117271314Y-104506824D01*
X117271314Y-104506823D01*
X117271313Y-104506820D01*
X117259000Y-104381803D01*
X117259000Y-103898196D01*
X117271313Y-103773179D01*
X117312619Y-103637011D01*
X117319975Y-103612761D01*
X117319976Y-103612759D01*
X117319977Y-103612756D01*
X117398993Y-103464926D01*
X117398996Y-103464922D01*
X117505342Y-103335341D01*
X117505344Y-103335339D01*
X117634923Y-103228995D01*
X117782757Y-103149977D01*
X117782760Y-103149976D01*
X117782762Y-103149975D01*
X117943176Y-103101314D01*
X117943177Y-103101314D01*
X117943180Y-103101313D01*
X118110000Y-103084883D01*
X118276821Y-103101313D01*
X118276821Y-103101313D01*
G37*
G36*
X115736821Y-103101313D02*
X115736824Y-103101314D01*
X115736825Y-103101314D01*
X115897239Y-103149975D01*
X115897241Y-103149976D01*
X115897244Y-103149977D01*
X116045078Y-103228995D01*
X116174659Y-103335341D01*
X116281005Y-103464922D01*
X116360023Y-103612756D01*
X116360024Y-103612759D01*
X116360025Y-103612761D01*
X116408686Y-103773175D01*
X116408686Y-103773178D01*
X116408687Y-103773180D01*
X116421000Y-103898197D01*
X116421000Y-104381804D01*
X116408687Y-104506821D01*
X116408686Y-104506824D01*
X116408686Y-104506825D01*
X116367381Y-104642991D01*
X116360023Y-104667244D01*
X116281005Y-104815078D01*
X116174659Y-104944659D01*
X116045078Y-105051005D01*
X115897243Y-105130023D01*
X115897240Y-105130024D01*
X115897238Y-105130025D01*
X115736824Y-105178686D01*
X115736823Y-105178686D01*
X115736820Y-105178687D01*
X115570000Y-105195117D01*
X115403179Y-105178687D01*
X115403176Y-105178686D01*
X115403175Y-105178686D01*
X115242761Y-105130025D01*
X115242759Y-105130024D01*
X115242756Y-105130023D01*
X115094922Y-105051005D01*
X114965341Y-104944659D01*
X114858995Y-104815078D01*
X114779977Y-104667243D01*
X114772620Y-104642989D01*
X114731314Y-104506824D01*
X114731314Y-104506823D01*
X114731313Y-104506820D01*
X114719000Y-104381803D01*
X114719000Y-103898196D01*
X114731313Y-103773179D01*
X114772619Y-103637011D01*
X114779975Y-103612761D01*
X114779976Y-103612759D01*
X114779977Y-103612756D01*
X114858993Y-103464926D01*
X114858996Y-103464922D01*
X114965342Y-103335341D01*
X114965344Y-103335339D01*
X115094923Y-103228995D01*
X115242757Y-103149977D01*
X115242760Y-103149976D01*
X115242762Y-103149975D01*
X115403176Y-103101314D01*
X115403177Y-103101314D01*
X115403180Y-103101313D01*
X115570000Y-103084883D01*
X115736821Y-103101313D01*
X115736821Y-103101313D01*
G37*
G36*
X113196821Y-103101313D02*
X113196824Y-103101314D01*
X113196825Y-103101314D01*
X113357239Y-103149975D01*
X113357241Y-103149976D01*
X113357244Y-103149977D01*
X113505078Y-103228995D01*
X113634659Y-103335341D01*
X113741005Y-103464922D01*
X113820023Y-103612756D01*
X113820024Y-103612759D01*
X113820025Y-103612761D01*
X113868686Y-103773175D01*
X113868686Y-103773178D01*
X113868687Y-103773180D01*
X113881000Y-103898197D01*
X113881000Y-104381804D01*
X113868687Y-104506821D01*
X113868686Y-104506824D01*
X113868686Y-104506825D01*
X113827381Y-104642991D01*
X113820023Y-104667244D01*
X113741005Y-104815078D01*
X113634659Y-104944659D01*
X113505078Y-105051005D01*
X113357243Y-105130023D01*
X113357240Y-105130024D01*
X113357238Y-105130025D01*
X113196824Y-105178686D01*
X113196823Y-105178686D01*
X113196820Y-105178687D01*
X113030000Y-105195117D01*
X112863179Y-105178687D01*
X112863176Y-105178686D01*
X112863175Y-105178686D01*
X112702761Y-105130025D01*
X112702759Y-105130024D01*
X112702756Y-105130023D01*
X112554922Y-105051005D01*
X112425341Y-104944659D01*
X112318995Y-104815078D01*
X112239977Y-104667243D01*
X112232620Y-104642989D01*
X112191314Y-104506824D01*
X112191314Y-104506823D01*
X112191313Y-104506820D01*
X112179000Y-104381803D01*
X112179000Y-103898196D01*
X112191313Y-103773179D01*
X112232619Y-103637011D01*
X112239975Y-103612761D01*
X112239976Y-103612759D01*
X112239977Y-103612756D01*
X112318993Y-103464926D01*
X112318996Y-103464922D01*
X112425342Y-103335341D01*
X112425344Y-103335339D01*
X112554923Y-103228995D01*
X112702757Y-103149977D01*
X112702760Y-103149976D01*
X112702762Y-103149975D01*
X112863176Y-103101314D01*
X112863177Y-103101314D01*
X112863180Y-103101313D01*
X113030000Y-103084883D01*
X113196821Y-103101313D01*
X113196821Y-103101313D01*
G37*
G36*
X108116821Y-103101313D02*
X108116824Y-103101314D01*
X108116825Y-103101314D01*
X108277239Y-103149975D01*
X108277241Y-103149976D01*
X108277244Y-103149977D01*
X108425078Y-103228995D01*
X108554659Y-103335341D01*
X108661005Y-103464922D01*
X108740023Y-103612756D01*
X108740024Y-103612759D01*
X108740025Y-103612761D01*
X108788686Y-103773175D01*
X108788686Y-103773178D01*
X108788687Y-103773180D01*
X108801000Y-103898197D01*
X108801000Y-104381804D01*
X108788687Y-104506821D01*
X108788686Y-104506824D01*
X108788686Y-104506825D01*
X108747381Y-104642991D01*
X108740023Y-104667244D01*
X108661005Y-104815078D01*
X108554659Y-104944659D01*
X108425078Y-105051005D01*
X108277243Y-105130023D01*
X108277240Y-105130024D01*
X108277238Y-105130025D01*
X108116824Y-105178686D01*
X108116823Y-105178686D01*
X108116820Y-105178687D01*
X107950000Y-105195117D01*
X107783179Y-105178687D01*
X107783176Y-105178686D01*
X107783175Y-105178686D01*
X107622761Y-105130025D01*
X107622759Y-105130024D01*
X107622756Y-105130023D01*
X107474922Y-105051005D01*
X107345341Y-104944659D01*
X107238995Y-104815078D01*
X107159977Y-104667243D01*
X107152620Y-104642989D01*
X107111314Y-104506824D01*
X107111314Y-104506823D01*
X107111313Y-104506820D01*
X107099000Y-104381803D01*
X107099000Y-103898196D01*
X107111313Y-103773179D01*
X107152619Y-103637011D01*
X107159975Y-103612761D01*
X107159976Y-103612759D01*
X107159977Y-103612756D01*
X107238993Y-103464926D01*
X107238996Y-103464922D01*
X107345342Y-103335341D01*
X107345344Y-103335339D01*
X107474923Y-103228995D01*
X107622757Y-103149977D01*
X107622760Y-103149976D01*
X107622762Y-103149975D01*
X107783176Y-103101314D01*
X107783177Y-103101314D01*
X107783180Y-103101313D01*
X107950000Y-103084883D01*
X108116821Y-103101313D01*
X108116821Y-103101313D01*
G37*
G36*
X105576821Y-103101313D02*
X105576824Y-103101314D01*
X105576825Y-103101314D01*
X105737239Y-103149975D01*
X105737241Y-103149976D01*
X105737244Y-103149977D01*
X105885078Y-103228995D01*
X106014659Y-103335341D01*
X106121005Y-103464922D01*
X106200023Y-103612756D01*
X106200024Y-103612759D01*
X106200025Y-103612761D01*
X106248686Y-103773175D01*
X106248686Y-103773178D01*
X106248687Y-103773180D01*
X106261000Y-103898197D01*
X106261000Y-104381804D01*
X106248687Y-104506821D01*
X106248686Y-104506824D01*
X106248686Y-104506825D01*
X106207381Y-104642991D01*
X106200023Y-104667244D01*
X106121005Y-104815078D01*
X106014659Y-104944659D01*
X105885078Y-105051005D01*
X105737243Y-105130023D01*
X105737240Y-105130024D01*
X105737238Y-105130025D01*
X105576824Y-105178686D01*
X105576823Y-105178686D01*
X105576820Y-105178687D01*
X105410000Y-105195117D01*
X105243179Y-105178687D01*
X105243176Y-105178686D01*
X105243175Y-105178686D01*
X105082761Y-105130025D01*
X105082759Y-105130024D01*
X105082756Y-105130023D01*
X104934922Y-105051005D01*
X104805341Y-104944659D01*
X104698995Y-104815078D01*
X104619977Y-104667243D01*
X104612620Y-104642989D01*
X104571314Y-104506824D01*
X104571314Y-104506823D01*
X104571313Y-104506820D01*
X104559000Y-104381803D01*
X104559000Y-103898196D01*
X104571313Y-103773179D01*
X104612619Y-103637011D01*
X104619975Y-103612761D01*
X104619976Y-103612759D01*
X104619977Y-103612756D01*
X104698993Y-103464926D01*
X104698996Y-103464922D01*
X104805342Y-103335341D01*
X104805344Y-103335339D01*
X104934923Y-103228995D01*
X105082757Y-103149977D01*
X105082760Y-103149976D01*
X105082762Y-103149975D01*
X105243176Y-103101314D01*
X105243177Y-103101314D01*
X105243180Y-103101313D01*
X105410000Y-103084883D01*
X105576821Y-103101313D01*
X105576821Y-103101313D01*
G37*
G36*
X110656821Y-103101313D02*
X110656824Y-103101314D01*
X110656825Y-103101314D01*
X110817239Y-103149975D01*
X110817241Y-103149976D01*
X110817244Y-103149977D01*
X110965078Y-103228995D01*
X111094659Y-103335341D01*
X111201005Y-103464922D01*
X111280023Y-103612756D01*
X111280024Y-103612759D01*
X111280025Y-103612761D01*
X111328686Y-103773175D01*
X111328686Y-103773178D01*
X111328687Y-103773180D01*
X111341000Y-103898197D01*
X111341000Y-104381804D01*
X111328687Y-104506821D01*
X111328686Y-104506824D01*
X111328686Y-104506825D01*
X111287381Y-104642991D01*
X111280023Y-104667244D01*
X111201005Y-104815078D01*
X111094659Y-104944659D01*
X110965078Y-105051005D01*
X110817243Y-105130023D01*
X110817240Y-105130024D01*
X110817238Y-105130025D01*
X110656824Y-105178686D01*
X110656823Y-105178686D01*
X110656820Y-105178687D01*
X110490000Y-105195117D01*
X110323179Y-105178687D01*
X110323176Y-105178686D01*
X110323175Y-105178686D01*
X110162761Y-105130025D01*
X110162759Y-105130024D01*
X110162756Y-105130023D01*
X110014922Y-105051005D01*
X109885341Y-104944659D01*
X109778995Y-104815078D01*
X109699977Y-104667243D01*
X109692620Y-104642989D01*
X109651314Y-104506824D01*
X109651314Y-104506823D01*
X109651313Y-104506820D01*
X109639000Y-104381803D01*
X109639000Y-103898196D01*
X109651313Y-103773179D01*
X109692619Y-103637011D01*
X109699975Y-103612761D01*
X109699976Y-103612759D01*
X109699977Y-103612756D01*
X109778993Y-103464926D01*
X109778996Y-103464922D01*
X109885342Y-103335341D01*
X109885344Y-103335339D01*
X110014923Y-103228995D01*
X110162757Y-103149977D01*
X110162760Y-103149976D01*
X110162762Y-103149975D01*
X110323176Y-103101314D01*
X110323177Y-103101314D01*
X110323180Y-103101313D01*
X110490000Y-103084883D01*
X110656821Y-103101313D01*
X110656821Y-103101313D01*
G37*
G36*
X164016425Y-103202760D02*
X164016428Y-103202761D01*
X164016429Y-103202761D01*
X164195693Y-103257140D01*
X164195695Y-103257141D01*
X164360905Y-103345448D01*
X164505712Y-103464288D01*
X164624552Y-103609095D01*
X164639472Y-103637009D01*
X164712860Y-103774307D01*
X164767239Y-103953571D01*
X164767240Y-103953575D01*
X164785601Y-104140000D01*
X164767240Y-104326425D01*
X164767239Y-104326428D01*
X164767239Y-104326429D01*
X164750442Y-104381803D01*
X164712859Y-104505695D01*
X164624552Y-104670905D01*
X164505712Y-104815712D01*
X164360905Y-104934552D01*
X164360903Y-104934553D01*
X164195693Y-105022860D01*
X164016429Y-105077239D01*
X164016428Y-105077239D01*
X164016425Y-105077240D01*
X163876718Y-105091000D01*
X163783282Y-105091000D01*
X163643575Y-105077240D01*
X163643572Y-105077239D01*
X163643571Y-105077239D01*
X163464307Y-105022860D01*
X163299097Y-104934553D01*
X163299095Y-104934552D01*
X163154288Y-104815712D01*
X163035448Y-104670905D01*
X162947141Y-104505695D01*
X162909559Y-104381803D01*
X162892761Y-104326429D01*
X162892761Y-104326428D01*
X162892760Y-104326425D01*
X162874399Y-104140000D01*
X162892760Y-103953575D01*
X162892761Y-103953571D01*
X162947140Y-103774307D01*
X163020528Y-103637009D01*
X163035448Y-103609095D01*
X163154288Y-103464288D01*
X163299095Y-103345448D01*
X163464305Y-103257141D01*
X163464307Y-103257140D01*
X163643571Y-103202761D01*
X163643572Y-103202761D01*
X163643575Y-103202760D01*
X163783282Y-103189000D01*
X163876718Y-103189000D01*
X164016425Y-103202760D01*
X164016425Y-103202760D01*
G37*
G36*
X134730443Y-103245519D02*
X134796627Y-103252037D01*
X134909853Y-103286384D01*
X134966467Y-103303557D01*
X135044838Y-103345448D01*
X135122991Y-103387222D01*
X135158729Y-103416552D01*
X135260186Y-103499814D01*
X135343448Y-103601271D01*
X135372778Y-103637009D01*
X135372779Y-103637011D01*
X135456443Y-103793533D01*
X135456443Y-103793534D01*
X135507963Y-103963373D01*
X135525359Y-104140000D01*
X135507963Y-104316627D01*
X135488193Y-104381799D01*
X135456443Y-104486467D01*
X135445561Y-104506825D01*
X135372778Y-104642991D01*
X135352879Y-104667238D01*
X135260186Y-104780186D01*
X135158729Y-104863448D01*
X135122991Y-104892778D01*
X135122989Y-104892779D01*
X134966467Y-104976443D01*
X134909853Y-104993616D01*
X134796627Y-105027963D01*
X134730442Y-105034482D01*
X134664260Y-105041000D01*
X134575740Y-105041000D01*
X134509557Y-105034481D01*
X134443373Y-105027963D01*
X134330147Y-104993616D01*
X134273533Y-104976443D01*
X134117011Y-104892779D01*
X134117009Y-104892778D01*
X134081271Y-104863448D01*
X133979814Y-104780186D01*
X133887121Y-104667238D01*
X133867222Y-104642991D01*
X133794439Y-104506825D01*
X133783557Y-104486467D01*
X133751807Y-104381799D01*
X133732037Y-104316627D01*
X133714641Y-104140000D01*
X133732037Y-103963373D01*
X133783557Y-103793534D01*
X133783557Y-103793533D01*
X133867221Y-103637011D01*
X133867222Y-103637009D01*
X133896552Y-103601271D01*
X133979814Y-103499814D01*
X134081271Y-103416552D01*
X134117009Y-103387222D01*
X134195162Y-103345448D01*
X134273533Y-103303557D01*
X134330147Y-103286384D01*
X134443373Y-103252037D01*
X134509558Y-103245518D01*
X134575740Y-103239000D01*
X134664260Y-103239000D01*
X134730443Y-103245519D01*
X134730443Y-103245519D01*
G37*
G36*
X135521000Y-102501000D02*
X133719000Y-102501000D01*
X133719000Y-100699000D01*
X135521000Y-100699000D01*
X135521000Y-102501000D01*
X135521000Y-102501000D01*
G37*
G36*
X148214928Y-99241764D02*
X148236011Y-99248160D01*
X148255442Y-99258546D01*
X148272475Y-99272525D01*
X148286454Y-99289558D01*
X148296840Y-99308989D01*
X148303236Y-99330072D01*
X148306000Y-99358140D01*
X148306000Y-101171860D01*
X148303236Y-101199928D01*
X148296840Y-101221011D01*
X148286454Y-101240442D01*
X148272475Y-101257475D01*
X148255442Y-101271454D01*
X148236011Y-101281840D01*
X148214928Y-101288236D01*
X148186860Y-101291000D01*
X147723140Y-101291000D01*
X147695072Y-101288236D01*
X147673989Y-101281840D01*
X147654558Y-101271454D01*
X147637525Y-101257475D01*
X147623546Y-101240442D01*
X147613160Y-101221011D01*
X147606764Y-101199928D01*
X147604000Y-101171860D01*
X147604000Y-99358140D01*
X147606764Y-99330072D01*
X147613160Y-99308989D01*
X147623546Y-99289558D01*
X147637525Y-99272525D01*
X147654558Y-99258546D01*
X147673989Y-99248160D01*
X147695072Y-99241764D01*
X147723140Y-99239000D01*
X148186860Y-99239000D01*
X148214928Y-99241764D01*
X148214928Y-99241764D01*
G37*
G36*
X144404928Y-99241764D02*
X144426011Y-99248160D01*
X144445442Y-99258546D01*
X144462475Y-99272525D01*
X144476454Y-99289558D01*
X144486840Y-99308989D01*
X144493236Y-99330072D01*
X144496000Y-99358140D01*
X144496000Y-101171860D01*
X144493236Y-101199928D01*
X144486840Y-101221011D01*
X144476454Y-101240442D01*
X144462475Y-101257475D01*
X144445442Y-101271454D01*
X144426011Y-101281840D01*
X144404928Y-101288236D01*
X144376860Y-101291000D01*
X143913140Y-101291000D01*
X143885072Y-101288236D01*
X143863989Y-101281840D01*
X143844558Y-101271454D01*
X143827525Y-101257475D01*
X143813546Y-101240442D01*
X143803160Y-101221011D01*
X143796764Y-101199928D01*
X143794000Y-101171860D01*
X143794000Y-99358140D01*
X143796764Y-99330072D01*
X143803160Y-99308989D01*
X143813546Y-99289558D01*
X143827525Y-99272525D01*
X143844558Y-99258546D01*
X143863989Y-99248160D01*
X143885072Y-99241764D01*
X143913140Y-99239000D01*
X144376860Y-99239000D01*
X144404928Y-99241764D01*
X144404928Y-99241764D01*
G37*
G36*
X145674928Y-99241764D02*
X145696011Y-99248160D01*
X145715442Y-99258546D01*
X145732475Y-99272525D01*
X145746454Y-99289558D01*
X145756840Y-99308989D01*
X145763236Y-99330072D01*
X145766000Y-99358140D01*
X145766000Y-101171860D01*
X145763236Y-101199928D01*
X145756840Y-101221011D01*
X145746454Y-101240442D01*
X145732475Y-101257475D01*
X145715442Y-101271454D01*
X145696011Y-101281840D01*
X145674928Y-101288236D01*
X145646860Y-101291000D01*
X145183140Y-101291000D01*
X145155072Y-101288236D01*
X145133989Y-101281840D01*
X145114558Y-101271454D01*
X145097525Y-101257475D01*
X145083546Y-101240442D01*
X145073160Y-101221011D01*
X145066764Y-101199928D01*
X145064000Y-101171860D01*
X145064000Y-99358140D01*
X145066764Y-99330072D01*
X145073160Y-99308989D01*
X145083546Y-99289558D01*
X145097525Y-99272525D01*
X145114558Y-99258546D01*
X145133989Y-99248160D01*
X145155072Y-99241764D01*
X145183140Y-99239000D01*
X145646860Y-99239000D01*
X145674928Y-99241764D01*
X145674928Y-99241764D01*
G37*
G36*
X146944928Y-99241764D02*
X146966011Y-99248160D01*
X146985442Y-99258546D01*
X147002475Y-99272525D01*
X147016454Y-99289558D01*
X147026840Y-99308989D01*
X147033236Y-99330072D01*
X147036000Y-99358140D01*
X147036000Y-101171860D01*
X147033236Y-101199928D01*
X147026840Y-101221011D01*
X147016454Y-101240442D01*
X147002475Y-101257475D01*
X146985442Y-101271454D01*
X146966011Y-101281840D01*
X146944928Y-101288236D01*
X146916860Y-101291000D01*
X146453140Y-101291000D01*
X146425072Y-101288236D01*
X146403989Y-101281840D01*
X146384558Y-101271454D01*
X146367525Y-101257475D01*
X146353546Y-101240442D01*
X146343160Y-101221011D01*
X146336764Y-101199928D01*
X146334000Y-101171860D01*
X146334000Y-99358140D01*
X146336764Y-99330072D01*
X146343160Y-99308989D01*
X146353546Y-99289558D01*
X146367525Y-99272525D01*
X146384558Y-99258546D01*
X146403989Y-99248160D01*
X146425072Y-99241764D01*
X146453140Y-99239000D01*
X146916860Y-99239000D01*
X146944928Y-99241764D01*
X146944928Y-99241764D01*
G37*
G36*
X118276821Y-99491313D02*
X118276824Y-99491314D01*
X118276825Y-99491314D01*
X118437239Y-99539975D01*
X118437241Y-99539976D01*
X118437244Y-99539977D01*
X118585078Y-99618995D01*
X118714659Y-99725341D01*
X118821005Y-99854922D01*
X118900023Y-100002756D01*
X118900024Y-100002759D01*
X118900025Y-100002761D01*
X118948686Y-100163175D01*
X118948687Y-100163179D01*
X118965117Y-100330000D01*
X118948687Y-100496821D01*
X118948686Y-100496824D01*
X118948686Y-100496825D01*
X118923993Y-100578228D01*
X118900023Y-100657244D01*
X118821005Y-100805078D01*
X118714659Y-100934659D01*
X118585078Y-101041005D01*
X118437244Y-101120023D01*
X118437241Y-101120024D01*
X118437239Y-101120025D01*
X118276825Y-101168686D01*
X118276824Y-101168686D01*
X118276821Y-101168687D01*
X118151804Y-101181000D01*
X118068196Y-101181000D01*
X117943179Y-101168687D01*
X117943176Y-101168686D01*
X117943175Y-101168686D01*
X117782761Y-101120025D01*
X117782759Y-101120024D01*
X117782756Y-101120023D01*
X117634922Y-101041005D01*
X117505341Y-100934659D01*
X117398995Y-100805078D01*
X117319977Y-100657244D01*
X117296008Y-100578228D01*
X117271314Y-100496825D01*
X117271314Y-100496824D01*
X117271313Y-100496821D01*
X117254883Y-100330000D01*
X117271313Y-100163179D01*
X117271314Y-100163175D01*
X117319975Y-100002761D01*
X117319976Y-100002759D01*
X117319977Y-100002756D01*
X117398995Y-99854922D01*
X117505341Y-99725341D01*
X117634922Y-99618995D01*
X117782756Y-99539977D01*
X117782759Y-99539976D01*
X117782761Y-99539975D01*
X117943175Y-99491314D01*
X117943176Y-99491314D01*
X117943179Y-99491313D01*
X118068196Y-99479000D01*
X118151804Y-99479000D01*
X118276821Y-99491313D01*
X118276821Y-99491313D01*
G37*
G36*
X110738228Y-99511703D02*
X110893100Y-99575853D01*
X111032481Y-99668985D01*
X111151015Y-99787519D01*
X111244147Y-99926900D01*
X111308297Y-100081772D01*
X111341000Y-100246184D01*
X111341000Y-100413816D01*
X111308297Y-100578228D01*
X111244147Y-100733100D01*
X111151015Y-100872481D01*
X111032481Y-100991015D01*
X110893100Y-101084147D01*
X110738228Y-101148297D01*
X110573816Y-101181000D01*
X110406184Y-101181000D01*
X110241772Y-101148297D01*
X110086900Y-101084147D01*
X109947519Y-100991015D01*
X109828985Y-100872481D01*
X109735853Y-100733100D01*
X109671703Y-100578228D01*
X109639000Y-100413816D01*
X109639000Y-100246184D01*
X109671703Y-100081772D01*
X109735853Y-99926900D01*
X109828985Y-99787519D01*
X109947519Y-99668985D01*
X110086900Y-99575853D01*
X110241772Y-99511703D01*
X110406184Y-99479000D01*
X110573816Y-99479000D01*
X110738228Y-99511703D01*
X110738228Y-99511703D01*
G37*
G36*
X171560443Y-98165519D02*
X171626627Y-98172037D01*
X171739853Y-98206384D01*
X171796467Y-98223557D01*
X171935087Y-98297652D01*
X171952991Y-98307222D01*
X171988729Y-98336552D01*
X172090186Y-98419814D01*
X172173448Y-98521271D01*
X172202778Y-98557009D01*
X172202779Y-98557011D01*
X172286443Y-98713533D01*
X172286443Y-98713534D01*
X172337963Y-98883373D01*
X172355359Y-99060000D01*
X172337963Y-99236627D01*
X172309617Y-99330072D01*
X172286443Y-99406467D01*
X172234392Y-99503846D01*
X172202778Y-99562991D01*
X172187998Y-99581000D01*
X172090186Y-99700186D01*
X171988729Y-99783448D01*
X171952991Y-99812778D01*
X171952989Y-99812779D01*
X171796467Y-99896443D01*
X171739853Y-99913616D01*
X171626627Y-99947963D01*
X171560443Y-99954481D01*
X171494260Y-99961000D01*
X171405740Y-99961000D01*
X171339557Y-99954481D01*
X171273373Y-99947963D01*
X171160147Y-99913616D01*
X171103533Y-99896443D01*
X170947011Y-99812779D01*
X170947009Y-99812778D01*
X170911271Y-99783448D01*
X170809814Y-99700186D01*
X170712002Y-99581000D01*
X170697222Y-99562991D01*
X170665608Y-99503846D01*
X170613557Y-99406467D01*
X170590383Y-99330072D01*
X170562037Y-99236627D01*
X170544641Y-99060000D01*
X170562037Y-98883373D01*
X170613557Y-98713534D01*
X170613557Y-98713533D01*
X170697221Y-98557011D01*
X170697222Y-98557009D01*
X170726552Y-98521271D01*
X170809814Y-98419814D01*
X170911271Y-98336552D01*
X170947009Y-98307222D01*
X170964913Y-98297652D01*
X171103533Y-98223557D01*
X171160147Y-98206384D01*
X171273373Y-98172037D01*
X171339557Y-98165519D01*
X171405740Y-98159000D01*
X171494260Y-98159000D01*
X171560443Y-98165519D01*
X171560443Y-98165519D01*
G37*
G36*
X107542987Y-95332885D02*
X107575013Y-95342600D01*
X107604530Y-95358377D01*
X107630395Y-95379605D01*
X107651623Y-95405470D01*
X107667400Y-95434987D01*
X107677115Y-95467013D01*
X107681000Y-95506456D01*
X107681000Y-99403544D01*
X107677115Y-99442987D01*
X107667400Y-99475013D01*
X107651623Y-99504530D01*
X107630395Y-99530395D01*
X107604530Y-99551623D01*
X107575013Y-99567400D01*
X107542987Y-99577115D01*
X107503544Y-99581000D01*
X105856456Y-99581000D01*
X105817013Y-99577115D01*
X105784987Y-99567400D01*
X105755470Y-99551623D01*
X105729605Y-99530395D01*
X105708377Y-99504530D01*
X105692600Y-99475013D01*
X105682885Y-99442987D01*
X105679000Y-99403544D01*
X105679000Y-95506456D01*
X105682885Y-95467013D01*
X105692600Y-95434987D01*
X105708377Y-95405470D01*
X105729605Y-95379605D01*
X105755470Y-95358377D01*
X105784987Y-95342600D01*
X105817013Y-95332885D01*
X105856456Y-95329000D01*
X107503544Y-95329000D01*
X107542987Y-95332885D01*
X107542987Y-95332885D01*
G37*
G36*
X171560442Y-95625518D02*
X171626627Y-95632037D01*
X171739853Y-95666384D01*
X171796467Y-95683557D01*
X171935087Y-95757652D01*
X171952991Y-95767222D01*
X171967324Y-95778985D01*
X172090186Y-95879814D01*
X172170369Y-95977519D01*
X172202778Y-96017009D01*
X172202779Y-96017011D01*
X172286443Y-96173533D01*
X172294392Y-96199738D01*
X172337963Y-96343373D01*
X172355359Y-96520000D01*
X172337963Y-96696627D01*
X172316243Y-96768228D01*
X172286443Y-96866467D01*
X172224431Y-96982481D01*
X172202778Y-97022991D01*
X172173448Y-97058729D01*
X172090186Y-97160186D01*
X171988729Y-97243448D01*
X171952991Y-97272778D01*
X171952989Y-97272779D01*
X171796467Y-97356443D01*
X171748478Y-97371000D01*
X171626627Y-97407963D01*
X171560442Y-97414482D01*
X171494260Y-97421000D01*
X171405740Y-97421000D01*
X171339558Y-97414482D01*
X171273373Y-97407963D01*
X171151522Y-97371000D01*
X171103533Y-97356443D01*
X170947011Y-97272779D01*
X170947009Y-97272778D01*
X170911271Y-97243448D01*
X170809814Y-97160186D01*
X170726552Y-97058729D01*
X170697222Y-97022991D01*
X170675569Y-96982481D01*
X170613557Y-96866467D01*
X170583757Y-96768228D01*
X170562037Y-96696627D01*
X170544641Y-96520000D01*
X170562037Y-96343373D01*
X170605608Y-96199738D01*
X170613557Y-96173533D01*
X170697221Y-96017011D01*
X170697222Y-96017009D01*
X170729631Y-95977519D01*
X170809814Y-95879814D01*
X170932676Y-95778985D01*
X170947009Y-95767222D01*
X170964913Y-95757652D01*
X171103533Y-95683557D01*
X171160147Y-95666384D01*
X171273373Y-95632037D01*
X171339558Y-95625518D01*
X171405740Y-95619000D01*
X171494260Y-95619000D01*
X171560442Y-95625518D01*
X171560442Y-95625518D01*
G37*
G36*
X114548228Y-95701703D02*
X114703100Y-95765853D01*
X114842481Y-95858985D01*
X114961015Y-95977519D01*
X115054147Y-96116900D01*
X115118297Y-96271772D01*
X115151000Y-96436184D01*
X115151000Y-96603816D01*
X115118297Y-96768228D01*
X115054147Y-96923100D01*
X114961015Y-97062481D01*
X114842481Y-97181015D01*
X114703100Y-97274147D01*
X114548228Y-97338297D01*
X114383816Y-97371000D01*
X114216184Y-97371000D01*
X114051772Y-97338297D01*
X113896900Y-97274147D01*
X113757519Y-97181015D01*
X113638985Y-97062481D01*
X113545853Y-96923100D01*
X113481703Y-96768228D01*
X113449000Y-96603816D01*
X113449000Y-96436184D01*
X113481703Y-96271772D01*
X113545853Y-96116900D01*
X113638985Y-95977519D01*
X113757519Y-95858985D01*
X113896900Y-95765853D01*
X114051772Y-95701703D01*
X114216184Y-95669000D01*
X114383816Y-95669000D01*
X114548228Y-95701703D01*
X114548228Y-95701703D01*
G37*
G36*
X123438228Y-95621703D02*
X123593100Y-95685853D01*
X123732481Y-95778985D01*
X123851015Y-95897519D01*
X123944147Y-96036900D01*
X124008297Y-96191772D01*
X124041000Y-96356184D01*
X124041000Y-96523816D01*
X124008297Y-96688228D01*
X123944147Y-96843100D01*
X123851015Y-96982481D01*
X123732481Y-97101015D01*
X123593100Y-97194147D01*
X123438228Y-97258297D01*
X123273816Y-97291000D01*
X123106184Y-97291000D01*
X122941772Y-97258297D01*
X122786900Y-97194147D01*
X122647519Y-97101015D01*
X122528985Y-96982481D01*
X122435853Y-96843100D01*
X122371703Y-96688228D01*
X122339000Y-96523816D01*
X122339000Y-96356184D01*
X122371703Y-96191772D01*
X122435853Y-96036900D01*
X122528985Y-95897519D01*
X122647519Y-95778985D01*
X122786900Y-95685853D01*
X122941772Y-95621703D01*
X123106184Y-95589000D01*
X123273816Y-95589000D01*
X123438228Y-95621703D01*
X123438228Y-95621703D01*
G37*
G36*
X146944928Y-94291764D02*
X146966011Y-94298160D01*
X146985442Y-94308546D01*
X147002475Y-94322525D01*
X147016454Y-94339558D01*
X147026840Y-94358989D01*
X147033236Y-94380072D01*
X147036000Y-94408140D01*
X147036000Y-96221860D01*
X147033236Y-96249928D01*
X147026840Y-96271011D01*
X147016454Y-96290442D01*
X147002475Y-96307475D01*
X146985442Y-96321454D01*
X146966011Y-96331840D01*
X146944928Y-96338236D01*
X146916860Y-96341000D01*
X146453140Y-96341000D01*
X146425072Y-96338236D01*
X146403989Y-96331840D01*
X146384558Y-96321454D01*
X146367525Y-96307475D01*
X146353546Y-96290442D01*
X146343160Y-96271011D01*
X146336764Y-96249928D01*
X146334000Y-96221860D01*
X146334000Y-94408140D01*
X146336764Y-94380072D01*
X146343160Y-94358989D01*
X146353546Y-94339558D01*
X146367525Y-94322525D01*
X146384558Y-94308546D01*
X146403989Y-94298160D01*
X146425072Y-94291764D01*
X146453140Y-94289000D01*
X146916860Y-94289000D01*
X146944928Y-94291764D01*
X146944928Y-94291764D01*
G37*
G36*
X148214928Y-94291764D02*
X148236011Y-94298160D01*
X148255442Y-94308546D01*
X148272475Y-94322525D01*
X148286454Y-94339558D01*
X148296840Y-94358989D01*
X148303236Y-94380072D01*
X148306000Y-94408140D01*
X148306000Y-96221860D01*
X148303236Y-96249928D01*
X148296840Y-96271011D01*
X148286454Y-96290442D01*
X148272475Y-96307475D01*
X148255442Y-96321454D01*
X148236011Y-96331840D01*
X148214928Y-96338236D01*
X148186860Y-96341000D01*
X147723140Y-96341000D01*
X147695072Y-96338236D01*
X147673989Y-96331840D01*
X147654558Y-96321454D01*
X147637525Y-96307475D01*
X147623546Y-96290442D01*
X147613160Y-96271011D01*
X147606764Y-96249928D01*
X147604000Y-96221860D01*
X147604000Y-94408140D01*
X147606764Y-94380072D01*
X147613160Y-94358989D01*
X147623546Y-94339558D01*
X147637525Y-94322525D01*
X147654558Y-94308546D01*
X147673989Y-94298160D01*
X147695072Y-94291764D01*
X147723140Y-94289000D01*
X148186860Y-94289000D01*
X148214928Y-94291764D01*
X148214928Y-94291764D01*
G37*
G36*
X145674928Y-94291764D02*
X145696011Y-94298160D01*
X145715442Y-94308546D01*
X145732475Y-94322525D01*
X145746454Y-94339558D01*
X145756840Y-94358989D01*
X145763236Y-94380072D01*
X145766000Y-94408140D01*
X145766000Y-96221860D01*
X145763236Y-96249928D01*
X145756840Y-96271011D01*
X145746454Y-96290442D01*
X145732475Y-96307475D01*
X145715442Y-96321454D01*
X145696011Y-96331840D01*
X145674928Y-96338236D01*
X145646860Y-96341000D01*
X145183140Y-96341000D01*
X145155072Y-96338236D01*
X145133989Y-96331840D01*
X145114558Y-96321454D01*
X145097525Y-96307475D01*
X145083546Y-96290442D01*
X145073160Y-96271011D01*
X145066764Y-96249928D01*
X145064000Y-96221860D01*
X145064000Y-94408140D01*
X145066764Y-94380072D01*
X145073160Y-94358989D01*
X145083546Y-94339558D01*
X145097525Y-94322525D01*
X145114558Y-94308546D01*
X145133989Y-94298160D01*
X145155072Y-94291764D01*
X145183140Y-94289000D01*
X145646860Y-94289000D01*
X145674928Y-94291764D01*
X145674928Y-94291764D01*
G37*
G36*
X144404928Y-94291764D02*
X144426011Y-94298160D01*
X144445442Y-94308546D01*
X144462475Y-94322525D01*
X144476454Y-94339558D01*
X144486840Y-94358989D01*
X144493236Y-94380072D01*
X144496000Y-94408140D01*
X144496000Y-96221860D01*
X144493236Y-96249928D01*
X144486840Y-96271011D01*
X144476454Y-96290442D01*
X144462475Y-96307475D01*
X144445442Y-96321454D01*
X144426011Y-96331840D01*
X144404928Y-96338236D01*
X144376860Y-96341000D01*
X143913140Y-96341000D01*
X143885072Y-96338236D01*
X143863989Y-96331840D01*
X143844558Y-96321454D01*
X143827525Y-96307475D01*
X143813546Y-96290442D01*
X143803160Y-96271011D01*
X143796764Y-96249928D01*
X143794000Y-96221860D01*
X143794000Y-94408140D01*
X143796764Y-94380072D01*
X143803160Y-94358989D01*
X143813546Y-94339558D01*
X143827525Y-94322525D01*
X143844558Y-94308546D01*
X143863989Y-94298160D01*
X143885072Y-94291764D01*
X143913140Y-94289000D01*
X144376860Y-94289000D01*
X144404928Y-94291764D01*
X144404928Y-94291764D01*
G37*
G36*
X119463916Y-92142334D02*
X119572492Y-92175271D01*
X119672557Y-92228756D01*
X119760264Y-92300736D01*
X119832244Y-92388443D01*
X119885729Y-92488508D01*
X119918666Y-92597084D01*
X119929787Y-92710000D01*
X119918666Y-92822916D01*
X119885729Y-92931492D01*
X119885726Y-92931497D01*
X119832244Y-93031557D01*
X119760264Y-93119264D01*
X119672557Y-93191244D01*
X119591143Y-93234760D01*
X119570768Y-93248373D01*
X119553441Y-93265701D01*
X119539827Y-93286075D01*
X119530450Y-93308714D01*
X119525669Y-93332747D01*
X119525669Y-93357252D01*
X119530449Y-93381285D01*
X119539827Y-93403924D01*
X119553440Y-93424299D01*
X119570768Y-93441626D01*
X119591143Y-93455240D01*
X119672557Y-93498756D01*
X119760264Y-93570736D01*
X119832244Y-93658443D01*
X119885729Y-93758508D01*
X119918666Y-93867084D01*
X119929787Y-93980000D01*
X119918666Y-94092916D01*
X119885729Y-94201492D01*
X119885726Y-94201497D01*
X119832244Y-94301557D01*
X119760264Y-94389264D01*
X119683365Y-94452374D01*
X119666038Y-94469701D01*
X119652424Y-94490076D01*
X119643046Y-94512715D01*
X119638266Y-94536748D01*
X119638266Y-94561252D01*
X119643047Y-94585286D01*
X119652424Y-94607925D01*
X119666038Y-94628299D01*
X119683365Y-94645626D01*
X119703740Y-94659240D01*
X119726379Y-94668618D01*
X119762664Y-94674000D01*
X119927000Y-94674000D01*
X119927000Y-95826000D01*
X118325000Y-95826000D01*
X118325000Y-94674000D01*
X118489336Y-94674000D01*
X118513722Y-94671598D01*
X118537171Y-94664485D01*
X118558782Y-94652934D01*
X118577724Y-94637388D01*
X118593270Y-94618446D01*
X118604821Y-94596835D01*
X118611934Y-94573386D01*
X118614336Y-94549000D01*
X118611934Y-94524614D01*
X118604821Y-94501165D01*
X118593270Y-94479554D01*
X118568635Y-94452374D01*
X118491736Y-94389264D01*
X118419756Y-94301557D01*
X118366274Y-94201497D01*
X118366271Y-94201492D01*
X118333334Y-94092916D01*
X118322213Y-93980000D01*
X118333334Y-93867084D01*
X118366271Y-93758508D01*
X118419756Y-93658443D01*
X118491736Y-93570736D01*
X118579443Y-93498756D01*
X118660857Y-93455240D01*
X118681232Y-93441627D01*
X118698559Y-93424299D01*
X118712173Y-93403925D01*
X118721550Y-93381286D01*
X118726331Y-93357253D01*
X118726331Y-93332748D01*
X118721551Y-93308715D01*
X118712173Y-93286076D01*
X118698560Y-93265701D01*
X118681232Y-93248374D01*
X118660857Y-93234760D01*
X118579443Y-93191244D01*
X118491736Y-93119264D01*
X118419756Y-93031557D01*
X118366274Y-92931497D01*
X118366271Y-92931492D01*
X118333334Y-92822916D01*
X118322213Y-92710000D01*
X118333334Y-92597084D01*
X118366271Y-92488508D01*
X118419756Y-92388443D01*
X118491736Y-92300736D01*
X118579443Y-92228756D01*
X118679508Y-92175271D01*
X118788084Y-92142334D01*
X118872702Y-92134000D01*
X119379298Y-92134000D01*
X119463916Y-92142334D01*
X119463916Y-92142334D01*
G37*
G36*
X172351000Y-94881000D02*
X170549000Y-94881000D01*
X170549000Y-93079000D01*
X172351000Y-93079000D01*
X172351000Y-94881000D01*
X172351000Y-94881000D01*
G37*
G36*
X135521000Y-94627000D02*
X133719000Y-94627000D01*
X133719000Y-92825000D01*
X135521000Y-92825000D01*
X135521000Y-94627000D01*
X135521000Y-94627000D01*
G37*
G36*
X107542987Y-88382885D02*
X107575013Y-88392600D01*
X107604530Y-88408377D01*
X107630395Y-88429605D01*
X107651623Y-88455470D01*
X107667400Y-88484987D01*
X107677115Y-88517013D01*
X107681000Y-88556456D01*
X107681000Y-92453544D01*
X107677115Y-92492987D01*
X107667400Y-92525013D01*
X107651623Y-92554530D01*
X107630395Y-92580395D01*
X107604530Y-92601623D01*
X107575013Y-92617400D01*
X107542987Y-92627115D01*
X107503544Y-92631000D01*
X105856456Y-92631000D01*
X105817013Y-92627115D01*
X105784987Y-92617400D01*
X105755470Y-92601623D01*
X105729605Y-92580395D01*
X105708377Y-92554530D01*
X105692600Y-92525013D01*
X105682885Y-92492987D01*
X105679000Y-92453544D01*
X105679000Y-88556456D01*
X105682885Y-88517013D01*
X105692600Y-88484987D01*
X105708377Y-88455470D01*
X105729605Y-88429605D01*
X105755470Y-88408377D01*
X105784987Y-88392600D01*
X105817013Y-88382885D01*
X105856456Y-88379000D01*
X107503544Y-88379000D01*
X107542987Y-88382885D01*
X107542987Y-88382885D01*
G37*
G36*
X164781000Y-92391000D02*
X162879000Y-92391000D01*
X162879000Y-90489000D01*
X164781000Y-90489000D01*
X164781000Y-92391000D01*
X164781000Y-92391000D01*
G37*
G36*
X114548228Y-90701703D02*
X114703100Y-90765853D01*
X114842481Y-90858985D01*
X114961015Y-90977519D01*
X115054147Y-91116900D01*
X115118297Y-91271772D01*
X115151000Y-91436184D01*
X115151000Y-91603816D01*
X115118297Y-91768228D01*
X115054147Y-91923100D01*
X114961015Y-92062481D01*
X114842481Y-92181015D01*
X114703100Y-92274147D01*
X114548228Y-92338297D01*
X114383816Y-92371000D01*
X114216184Y-92371000D01*
X114051772Y-92338297D01*
X113896900Y-92274147D01*
X113757519Y-92181015D01*
X113638985Y-92062481D01*
X113545853Y-91923100D01*
X113481703Y-91768228D01*
X113449000Y-91603816D01*
X113449000Y-91436184D01*
X113481703Y-91271772D01*
X113545853Y-91116900D01*
X113638985Y-90977519D01*
X113757519Y-90858985D01*
X113896900Y-90765853D01*
X114051772Y-90701703D01*
X114216184Y-90669000D01*
X114383816Y-90669000D01*
X114548228Y-90701703D01*
X114548228Y-90701703D01*
G37*
G36*
X123438228Y-90621703D02*
X123593100Y-90685853D01*
X123732481Y-90778985D01*
X123851015Y-90897519D01*
X123944147Y-91036900D01*
X124008297Y-91191772D01*
X124041000Y-91356184D01*
X124041000Y-91523816D01*
X124008297Y-91688228D01*
X123944147Y-91843100D01*
X123851015Y-91982481D01*
X123732481Y-92101015D01*
X123593100Y-92194147D01*
X123438228Y-92258297D01*
X123273816Y-92291000D01*
X123106184Y-92291000D01*
X122941772Y-92258297D01*
X122786900Y-92194147D01*
X122647519Y-92101015D01*
X122528985Y-91982481D01*
X122435853Y-91843100D01*
X122371703Y-91688228D01*
X122339000Y-91523816D01*
X122339000Y-91356184D01*
X122371703Y-91191772D01*
X122435853Y-91036900D01*
X122528985Y-90897519D01*
X122647519Y-90778985D01*
X122786900Y-90685853D01*
X122941772Y-90621703D01*
X123106184Y-90589000D01*
X123273816Y-90589000D01*
X123438228Y-90621703D01*
X123438228Y-90621703D01*
G37*
G36*
X134730443Y-90291519D02*
X134796627Y-90298037D01*
X134909853Y-90332384D01*
X134966467Y-90349557D01*
X135105087Y-90423652D01*
X135122991Y-90433222D01*
X135158729Y-90462552D01*
X135260186Y-90545814D01*
X135322466Y-90621704D01*
X135372778Y-90683009D01*
X135372779Y-90683011D01*
X135456443Y-90839533D01*
X135462344Y-90858986D01*
X135507963Y-91009373D01*
X135525359Y-91186000D01*
X135507963Y-91362627D01*
X135485650Y-91436184D01*
X135456443Y-91532467D01*
X135382348Y-91671087D01*
X135372778Y-91688991D01*
X135343448Y-91724729D01*
X135260186Y-91826186D01*
X135158729Y-91909448D01*
X135122991Y-91938778D01*
X135122989Y-91938779D01*
X134966467Y-92022443D01*
X134909853Y-92039616D01*
X134796627Y-92073963D01*
X134730443Y-92080481D01*
X134664260Y-92087000D01*
X134575740Y-92087000D01*
X134509557Y-92080481D01*
X134443373Y-92073963D01*
X134330147Y-92039616D01*
X134273533Y-92022443D01*
X134117011Y-91938779D01*
X134117009Y-91938778D01*
X134081271Y-91909448D01*
X133979814Y-91826186D01*
X133896552Y-91724729D01*
X133867222Y-91688991D01*
X133857652Y-91671087D01*
X133783557Y-91532467D01*
X133754350Y-91436184D01*
X133732037Y-91362627D01*
X133714641Y-91186000D01*
X133732037Y-91009373D01*
X133777656Y-90858986D01*
X133783557Y-90839533D01*
X133867221Y-90683011D01*
X133867222Y-90683009D01*
X133917534Y-90621704D01*
X133979814Y-90545814D01*
X134081271Y-90462552D01*
X134117009Y-90433222D01*
X134134913Y-90423652D01*
X134273533Y-90349557D01*
X134330147Y-90332384D01*
X134443373Y-90298037D01*
X134509557Y-90291519D01*
X134575740Y-90285000D01*
X134664260Y-90285000D01*
X134730443Y-90291519D01*
X134730443Y-90291519D01*
G37*
G36*
X166553636Y-88931019D02*
X166734903Y-88967075D01*
X166962571Y-89061378D01*
X167166542Y-89197668D01*
X167167469Y-89198287D01*
X167341713Y-89372531D01*
X167341715Y-89372534D01*
X167478622Y-89577429D01*
X167572925Y-89805097D01*
X167608981Y-89986364D01*
X167621000Y-90046786D01*
X167621000Y-90293214D01*
X167609793Y-90349557D01*
X167572925Y-90534903D01*
X167478622Y-90762571D01*
X167414199Y-90858986D01*
X167341713Y-90967469D01*
X167167469Y-91141713D01*
X167167466Y-91141715D01*
X166962571Y-91278622D01*
X166734903Y-91372925D01*
X166553636Y-91408981D01*
X166493214Y-91421000D01*
X166246786Y-91421000D01*
X166186364Y-91408981D01*
X166005097Y-91372925D01*
X165777429Y-91278622D01*
X165572534Y-91141715D01*
X165572531Y-91141713D01*
X165398287Y-90967469D01*
X165325801Y-90858986D01*
X165261378Y-90762571D01*
X165167075Y-90534903D01*
X165130207Y-90349557D01*
X165119000Y-90293214D01*
X165119000Y-90046786D01*
X165131019Y-89986364D01*
X165167075Y-89805097D01*
X165261378Y-89577429D01*
X165398285Y-89372534D01*
X165398287Y-89372531D01*
X165572531Y-89198287D01*
X165573458Y-89197668D01*
X165777429Y-89061378D01*
X166005097Y-88967075D01*
X166186364Y-88931019D01*
X166246786Y-88919000D01*
X166493214Y-88919000D01*
X166553636Y-88931019D01*
X166553636Y-88931019D01*
G37*
G36*
X141153636Y-88931019D02*
X141334903Y-88967075D01*
X141562571Y-89061378D01*
X141766542Y-89197668D01*
X141767469Y-89198287D01*
X141941713Y-89372531D01*
X141941715Y-89372534D01*
X142078622Y-89577429D01*
X142172925Y-89805097D01*
X142208981Y-89986364D01*
X142221000Y-90046786D01*
X142221000Y-90293214D01*
X142209793Y-90349557D01*
X142172925Y-90534903D01*
X142078622Y-90762571D01*
X142014199Y-90858986D01*
X141941713Y-90967469D01*
X141767469Y-91141713D01*
X141767466Y-91141715D01*
X141562571Y-91278622D01*
X141334903Y-91372925D01*
X141153636Y-91408981D01*
X141093214Y-91421000D01*
X140846786Y-91421000D01*
X140786364Y-91408981D01*
X140605097Y-91372925D01*
X140377429Y-91278622D01*
X140172534Y-91141715D01*
X140172531Y-91141713D01*
X139998287Y-90967469D01*
X139925801Y-90858986D01*
X139861378Y-90762571D01*
X139767075Y-90534903D01*
X139730207Y-90349557D01*
X139719000Y-90293214D01*
X139719000Y-90046786D01*
X139731019Y-89986364D01*
X139767075Y-89805097D01*
X139861378Y-89577429D01*
X139998285Y-89372534D01*
X139998287Y-89372531D01*
X140172531Y-89198287D01*
X140173458Y-89197668D01*
X140377429Y-89061378D01*
X140605097Y-88967075D01*
X140786364Y-88931019D01*
X140846786Y-88919000D01*
X141093214Y-88919000D01*
X141153636Y-88931019D01*
X141153636Y-88931019D01*
G37*
G36*
X172351000Y-87261000D02*
X170549000Y-87261000D01*
X170549000Y-85459000D01*
X172351000Y-85459000D01*
X172351000Y-87261000D01*
X172351000Y-87261000D01*
G37*
G36*
X166001000Y-87261000D02*
X164199000Y-87261000D01*
X164199000Y-85459000D01*
X166001000Y-85459000D01*
X166001000Y-87261000D01*
X166001000Y-87261000D01*
G37*
G36*
X115736821Y-85521313D02*
X115736824Y-85521314D01*
X115736825Y-85521314D01*
X115897239Y-85569975D01*
X115897241Y-85569976D01*
X115897244Y-85569977D01*
X116045078Y-85648995D01*
X116174659Y-85755341D01*
X116281005Y-85884922D01*
X116360023Y-86032756D01*
X116360024Y-86032759D01*
X116360025Y-86032761D01*
X116408686Y-86193175D01*
X116408687Y-86193179D01*
X116425117Y-86360000D01*
X116408687Y-86526821D01*
X116408686Y-86526824D01*
X116408686Y-86526825D01*
X116383993Y-86608228D01*
X116360023Y-86687244D01*
X116281005Y-86835078D01*
X116174659Y-86964659D01*
X116045078Y-87071005D01*
X115897244Y-87150023D01*
X115897241Y-87150024D01*
X115897239Y-87150025D01*
X115736825Y-87198686D01*
X115736824Y-87198686D01*
X115736821Y-87198687D01*
X115611804Y-87211000D01*
X115528196Y-87211000D01*
X115403179Y-87198687D01*
X115403176Y-87198686D01*
X115403175Y-87198686D01*
X115242761Y-87150025D01*
X115242759Y-87150024D01*
X115242756Y-87150023D01*
X115094922Y-87071005D01*
X114965341Y-86964659D01*
X114858995Y-86835078D01*
X114779977Y-86687244D01*
X114756008Y-86608228D01*
X114731314Y-86526825D01*
X114731314Y-86526824D01*
X114731313Y-86526821D01*
X114714883Y-86360000D01*
X114731313Y-86193179D01*
X114731314Y-86193175D01*
X114779975Y-86032761D01*
X114779976Y-86032759D01*
X114779977Y-86032756D01*
X114858995Y-85884922D01*
X114965341Y-85755341D01*
X115094922Y-85648995D01*
X115242756Y-85569977D01*
X115242759Y-85569976D01*
X115242761Y-85569975D01*
X115403175Y-85521314D01*
X115403176Y-85521314D01*
X115403179Y-85521313D01*
X115528196Y-85509000D01*
X115611804Y-85509000D01*
X115736821Y-85521313D01*
X115736821Y-85521313D01*
G37*
G36*
X123438228Y-85541703D02*
X123593100Y-85605853D01*
X123732481Y-85698985D01*
X123851015Y-85817519D01*
X123944147Y-85956900D01*
X124008297Y-86111772D01*
X124041000Y-86276184D01*
X124041000Y-86443816D01*
X124008297Y-86608228D01*
X123944147Y-86763100D01*
X123851015Y-86902481D01*
X123732481Y-87021015D01*
X123593100Y-87114147D01*
X123438228Y-87178297D01*
X123273816Y-87211000D01*
X123106184Y-87211000D01*
X122941772Y-87178297D01*
X122786900Y-87114147D01*
X122647519Y-87021015D01*
X122528985Y-86902481D01*
X122435853Y-86763100D01*
X122371703Y-86608228D01*
X122339000Y-86443816D01*
X122339000Y-86276184D01*
X122371703Y-86111772D01*
X122435853Y-85956900D01*
X122528985Y-85817519D01*
X122647519Y-85698985D01*
X122786900Y-85605853D01*
X122941772Y-85541703D01*
X123106184Y-85509000D01*
X123273816Y-85509000D01*
X123438228Y-85541703D01*
X123438228Y-85541703D01*
G37*
G36*
X157646821Y-84251313D02*
X157646824Y-84251314D01*
X157646825Y-84251314D01*
X157807239Y-84299975D01*
X157807241Y-84299976D01*
X157807244Y-84299977D01*
X157955078Y-84378995D01*
X158084659Y-84485341D01*
X158191005Y-84614922D01*
X158270023Y-84762756D01*
X158270024Y-84762759D01*
X158270025Y-84762761D01*
X158318686Y-84923175D01*
X158318687Y-84923179D01*
X158335117Y-85090000D01*
X158318687Y-85256821D01*
X158318686Y-85256824D01*
X158318686Y-85256825D01*
X158293993Y-85338228D01*
X158270023Y-85417244D01*
X158191005Y-85565078D01*
X158084659Y-85694659D01*
X157955078Y-85801005D01*
X157807244Y-85880023D01*
X157807241Y-85880024D01*
X157807239Y-85880025D01*
X157646825Y-85928686D01*
X157646824Y-85928686D01*
X157646821Y-85928687D01*
X157521804Y-85941000D01*
X157438196Y-85941000D01*
X157313179Y-85928687D01*
X157313176Y-85928686D01*
X157313175Y-85928686D01*
X157152761Y-85880025D01*
X157152759Y-85880024D01*
X157152756Y-85880023D01*
X157004922Y-85801005D01*
X156875341Y-85694659D01*
X156768995Y-85565078D01*
X156689977Y-85417244D01*
X156666008Y-85338228D01*
X156641314Y-85256825D01*
X156641314Y-85256824D01*
X156641313Y-85256821D01*
X156624883Y-85090000D01*
X156641313Y-84923179D01*
X156641314Y-84923175D01*
X156689975Y-84762761D01*
X156689976Y-84762759D01*
X156689977Y-84762756D01*
X156768995Y-84614922D01*
X156875341Y-84485341D01*
X157004922Y-84378995D01*
X157152756Y-84299977D01*
X157152759Y-84299976D01*
X157152761Y-84299975D01*
X157313175Y-84251314D01*
X157313176Y-84251314D01*
X157313179Y-84251313D01*
X157438196Y-84239000D01*
X157521804Y-84239000D01*
X157646821Y-84251313D01*
X157646821Y-84251313D01*
G37*
G36*
X150108228Y-84271703D02*
X150263100Y-84335853D01*
X150402481Y-84428985D01*
X150521015Y-84547519D01*
X150614147Y-84686900D01*
X150678297Y-84841772D01*
X150711000Y-85006184D01*
X150711000Y-85173816D01*
X150678297Y-85338228D01*
X150614147Y-85493100D01*
X150521015Y-85632481D01*
X150402481Y-85751015D01*
X150263100Y-85844147D01*
X150108228Y-85908297D01*
X149943816Y-85941000D01*
X149776184Y-85941000D01*
X149611772Y-85908297D01*
X149456900Y-85844147D01*
X149317519Y-85751015D01*
X149198985Y-85632481D01*
X149105853Y-85493100D01*
X149041703Y-85338228D01*
X149009000Y-85173816D01*
X149009000Y-85006184D01*
X149041703Y-84841772D01*
X149105853Y-84686900D01*
X149198985Y-84547519D01*
X149317519Y-84428985D01*
X149456900Y-84335853D01*
X149611772Y-84271703D01*
X149776184Y-84239000D01*
X149943816Y-84239000D01*
X150108228Y-84271703D01*
X150108228Y-84271703D01*
G37*
G36*
X105658228Y-84271703D02*
X105813100Y-84335853D01*
X105952481Y-84428985D01*
X106071015Y-84547519D01*
X106164147Y-84686900D01*
X106228297Y-84841772D01*
X106261000Y-85006184D01*
X106261000Y-85173816D01*
X106228297Y-85338228D01*
X106164147Y-85493100D01*
X106071015Y-85632481D01*
X105952481Y-85751015D01*
X105813100Y-85844147D01*
X105658228Y-85908297D01*
X105493816Y-85941000D01*
X105326184Y-85941000D01*
X105161772Y-85908297D01*
X105006900Y-85844147D01*
X104867519Y-85751015D01*
X104748985Y-85632481D01*
X104655853Y-85493100D01*
X104591703Y-85338228D01*
X104559000Y-85173816D01*
X104559000Y-85006184D01*
X104591703Y-84841772D01*
X104655853Y-84686900D01*
X104748985Y-84547519D01*
X104867519Y-84428985D01*
X105006900Y-84335853D01*
X105161772Y-84271703D01*
X105326184Y-84239000D01*
X105493816Y-84239000D01*
X105658228Y-84271703D01*
X105658228Y-84271703D01*
G37*
G36*
X113196821Y-84251313D02*
X113196824Y-84251314D01*
X113196825Y-84251314D01*
X113357239Y-84299975D01*
X113357241Y-84299976D01*
X113357244Y-84299977D01*
X113505078Y-84378995D01*
X113634659Y-84485341D01*
X113741005Y-84614922D01*
X113820023Y-84762756D01*
X113820024Y-84762759D01*
X113820025Y-84762761D01*
X113868686Y-84923175D01*
X113868687Y-84923179D01*
X113885117Y-85090000D01*
X113868687Y-85256821D01*
X113868686Y-85256824D01*
X113868686Y-85256825D01*
X113843993Y-85338228D01*
X113820023Y-85417244D01*
X113741005Y-85565078D01*
X113634659Y-85694659D01*
X113505078Y-85801005D01*
X113357244Y-85880023D01*
X113357241Y-85880024D01*
X113357239Y-85880025D01*
X113196825Y-85928686D01*
X113196824Y-85928686D01*
X113196821Y-85928687D01*
X113071804Y-85941000D01*
X112988196Y-85941000D01*
X112863179Y-85928687D01*
X112863176Y-85928686D01*
X112863175Y-85928686D01*
X112702761Y-85880025D01*
X112702759Y-85880024D01*
X112702756Y-85880023D01*
X112554922Y-85801005D01*
X112425341Y-85694659D01*
X112318995Y-85565078D01*
X112239977Y-85417244D01*
X112216008Y-85338228D01*
X112191314Y-85256825D01*
X112191314Y-85256824D01*
X112191313Y-85256821D01*
X112174883Y-85090000D01*
X112191313Y-84923179D01*
X112191314Y-84923175D01*
X112239975Y-84762761D01*
X112239976Y-84762759D01*
X112239977Y-84762756D01*
X112318995Y-84614922D01*
X112425341Y-84485341D01*
X112554922Y-84378995D01*
X112702756Y-84299977D01*
X112702759Y-84299976D01*
X112702761Y-84299975D01*
X112863175Y-84251314D01*
X112863176Y-84251314D01*
X112863179Y-84251313D01*
X112988196Y-84239000D01*
X113071804Y-84239000D01*
X113196821Y-84251313D01*
X113196821Y-84251313D01*
G37*
G36*
X138061000Y-84721000D02*
X136259000Y-84721000D01*
X136259000Y-82919000D01*
X138061000Y-82919000D01*
X138061000Y-84721000D01*
X138061000Y-84721000D01*
G37*
G36*
X142350443Y-82925519D02*
X142416627Y-82932037D01*
X142529853Y-82966384D01*
X142586467Y-82983557D01*
X142725087Y-83057652D01*
X142742991Y-83067222D01*
X142778729Y-83096552D01*
X142880186Y-83179814D01*
X142963448Y-83281271D01*
X142992778Y-83317009D01*
X142992779Y-83317011D01*
X143076443Y-83473533D01*
X143076443Y-83473534D01*
X143127963Y-83643373D01*
X143145359Y-83820000D01*
X143127963Y-83996627D01*
X143093616Y-84109853D01*
X143076443Y-84166467D01*
X143020192Y-84271703D01*
X142992778Y-84322991D01*
X142963448Y-84358729D01*
X142880186Y-84460186D01*
X142778729Y-84543448D01*
X142742991Y-84572778D01*
X142742989Y-84572779D01*
X142586467Y-84656443D01*
X142529853Y-84673616D01*
X142416627Y-84707963D01*
X142350443Y-84714481D01*
X142284260Y-84721000D01*
X142195740Y-84721000D01*
X142129557Y-84714481D01*
X142063373Y-84707963D01*
X141950147Y-84673616D01*
X141893533Y-84656443D01*
X141737011Y-84572779D01*
X141737009Y-84572778D01*
X141701271Y-84543448D01*
X141599814Y-84460186D01*
X141516552Y-84358729D01*
X141487222Y-84322991D01*
X141459808Y-84271703D01*
X141403557Y-84166467D01*
X141386384Y-84109853D01*
X141352037Y-83996627D01*
X141334641Y-83820000D01*
X141352037Y-83643373D01*
X141403557Y-83473534D01*
X141403557Y-83473533D01*
X141487221Y-83317011D01*
X141487222Y-83317009D01*
X141516552Y-83281271D01*
X141599814Y-83179814D01*
X141701271Y-83096552D01*
X141737009Y-83067222D01*
X141754913Y-83057652D01*
X141893533Y-82983557D01*
X141950147Y-82966384D01*
X142063373Y-82932037D01*
X142129557Y-82925519D01*
X142195740Y-82919000D01*
X142284260Y-82919000D01*
X142350443Y-82925519D01*
X142350443Y-82925519D01*
G37*
G36*
X171560443Y-82925519D02*
X171626627Y-82932037D01*
X171739853Y-82966384D01*
X171796467Y-82983557D01*
X171935087Y-83057652D01*
X171952991Y-83067222D01*
X171988729Y-83096552D01*
X172090186Y-83179814D01*
X172173448Y-83281271D01*
X172202778Y-83317009D01*
X172202779Y-83317011D01*
X172286443Y-83473533D01*
X172286443Y-83473534D01*
X172337963Y-83643373D01*
X172355359Y-83820000D01*
X172337963Y-83996627D01*
X172303616Y-84109853D01*
X172286443Y-84166467D01*
X172230192Y-84271703D01*
X172202778Y-84322991D01*
X172173448Y-84358729D01*
X172090186Y-84460186D01*
X171988729Y-84543448D01*
X171952991Y-84572778D01*
X171952989Y-84572779D01*
X171796467Y-84656443D01*
X171739853Y-84673616D01*
X171626627Y-84707963D01*
X171560443Y-84714481D01*
X171494260Y-84721000D01*
X171405740Y-84721000D01*
X171339557Y-84714481D01*
X171273373Y-84707963D01*
X171160147Y-84673616D01*
X171103533Y-84656443D01*
X170947011Y-84572779D01*
X170947009Y-84572778D01*
X170911271Y-84543448D01*
X170809814Y-84460186D01*
X170726552Y-84358729D01*
X170697222Y-84322991D01*
X170669808Y-84271703D01*
X170613557Y-84166467D01*
X170596384Y-84109853D01*
X170562037Y-83996627D01*
X170544641Y-83820000D01*
X170562037Y-83643373D01*
X170613557Y-83473534D01*
X170613557Y-83473533D01*
X170697221Y-83317011D01*
X170697222Y-83317009D01*
X170726552Y-83281271D01*
X170809814Y-83179814D01*
X170911271Y-83096552D01*
X170947009Y-83067222D01*
X170964913Y-83057652D01*
X171103533Y-82983557D01*
X171160147Y-82966384D01*
X171273373Y-82932037D01*
X171339557Y-82925519D01*
X171405740Y-82919000D01*
X171494260Y-82919000D01*
X171560443Y-82925519D01*
X171560443Y-82925519D01*
G37*
G36*
X139810443Y-82925519D02*
X139876627Y-82932037D01*
X139989853Y-82966384D01*
X140046467Y-82983557D01*
X140185087Y-83057652D01*
X140202991Y-83067222D01*
X140238729Y-83096552D01*
X140340186Y-83179814D01*
X140423448Y-83281271D01*
X140452778Y-83317009D01*
X140452779Y-83317011D01*
X140536443Y-83473533D01*
X140536443Y-83473534D01*
X140587963Y-83643373D01*
X140605359Y-83820000D01*
X140587963Y-83996627D01*
X140553616Y-84109853D01*
X140536443Y-84166467D01*
X140480192Y-84271703D01*
X140452778Y-84322991D01*
X140423448Y-84358729D01*
X140340186Y-84460186D01*
X140238729Y-84543448D01*
X140202991Y-84572778D01*
X140202989Y-84572779D01*
X140046467Y-84656443D01*
X139989853Y-84673616D01*
X139876627Y-84707963D01*
X139810443Y-84714481D01*
X139744260Y-84721000D01*
X139655740Y-84721000D01*
X139589557Y-84714481D01*
X139523373Y-84707963D01*
X139410147Y-84673616D01*
X139353533Y-84656443D01*
X139197011Y-84572779D01*
X139197009Y-84572778D01*
X139161271Y-84543448D01*
X139059814Y-84460186D01*
X138976552Y-84358729D01*
X138947222Y-84322991D01*
X138919808Y-84271703D01*
X138863557Y-84166467D01*
X138846384Y-84109853D01*
X138812037Y-83996627D01*
X138794641Y-83820000D01*
X138812037Y-83643373D01*
X138863557Y-83473534D01*
X138863557Y-83473533D01*
X138947221Y-83317011D01*
X138947222Y-83317009D01*
X138976552Y-83281271D01*
X139059814Y-83179814D01*
X139161271Y-83096552D01*
X139197009Y-83067222D01*
X139214913Y-83057652D01*
X139353533Y-82983557D01*
X139410147Y-82966384D01*
X139523373Y-82932037D01*
X139589557Y-82925519D01*
X139655740Y-82919000D01*
X139744260Y-82919000D01*
X139810443Y-82925519D01*
X139810443Y-82925519D01*
G37*
G36*
X165210443Y-82925519D02*
X165276627Y-82932037D01*
X165389853Y-82966384D01*
X165446467Y-82983557D01*
X165585087Y-83057652D01*
X165602991Y-83067222D01*
X165638729Y-83096552D01*
X165740186Y-83179814D01*
X165823448Y-83281271D01*
X165852778Y-83317009D01*
X165852779Y-83317011D01*
X165936443Y-83473533D01*
X165936443Y-83473534D01*
X165987963Y-83643373D01*
X166005359Y-83820000D01*
X165987963Y-83996627D01*
X165953616Y-84109853D01*
X165936443Y-84166467D01*
X165880192Y-84271703D01*
X165852778Y-84322991D01*
X165823448Y-84358729D01*
X165740186Y-84460186D01*
X165638729Y-84543448D01*
X165602991Y-84572778D01*
X165602989Y-84572779D01*
X165446467Y-84656443D01*
X165389853Y-84673616D01*
X165276627Y-84707963D01*
X165210443Y-84714481D01*
X165144260Y-84721000D01*
X165055740Y-84721000D01*
X164989557Y-84714481D01*
X164923373Y-84707963D01*
X164810147Y-84673616D01*
X164753533Y-84656443D01*
X164597011Y-84572779D01*
X164597009Y-84572778D01*
X164561271Y-84543448D01*
X164459814Y-84460186D01*
X164376552Y-84358729D01*
X164347222Y-84322991D01*
X164319808Y-84271703D01*
X164263557Y-84166467D01*
X164246384Y-84109853D01*
X164212037Y-83996627D01*
X164194641Y-83820000D01*
X164212037Y-83643373D01*
X164263557Y-83473534D01*
X164263557Y-83473533D01*
X164347221Y-83317011D01*
X164347222Y-83317009D01*
X164376552Y-83281271D01*
X164459814Y-83179814D01*
X164561271Y-83096552D01*
X164597009Y-83067222D01*
X164614913Y-83057652D01*
X164753533Y-82983557D01*
X164810147Y-82966384D01*
X164923373Y-82932037D01*
X164989557Y-82925519D01*
X165055740Y-82919000D01*
X165144260Y-82919000D01*
X165210443Y-82925519D01*
X165210443Y-82925519D01*
G37*
G36*
X105576821Y-80241313D02*
X105576824Y-80241314D01*
X105576825Y-80241314D01*
X105737239Y-80289975D01*
X105737241Y-80289976D01*
X105737244Y-80289977D01*
X105885078Y-80368995D01*
X106014659Y-80475341D01*
X106121005Y-80604922D01*
X106200023Y-80752756D01*
X106200024Y-80752759D01*
X106200025Y-80752761D01*
X106248686Y-80913175D01*
X106248686Y-80913178D01*
X106248687Y-80913180D01*
X106261000Y-81038197D01*
X106261000Y-81521804D01*
X106248687Y-81646821D01*
X106248686Y-81646824D01*
X106248686Y-81646825D01*
X106207381Y-81782991D01*
X106200023Y-81807244D01*
X106121005Y-81955078D01*
X106014659Y-82084659D01*
X105885078Y-82191005D01*
X105737243Y-82270023D01*
X105737240Y-82270024D01*
X105737238Y-82270025D01*
X105576824Y-82318686D01*
X105576823Y-82318686D01*
X105576820Y-82318687D01*
X105410000Y-82335117D01*
X105243179Y-82318687D01*
X105243176Y-82318686D01*
X105243175Y-82318686D01*
X105082761Y-82270025D01*
X105082759Y-82270024D01*
X105082756Y-82270023D01*
X104934922Y-82191005D01*
X104805341Y-82084659D01*
X104698995Y-81955078D01*
X104619977Y-81807243D01*
X104612620Y-81782989D01*
X104571314Y-81646824D01*
X104571314Y-81646823D01*
X104571313Y-81646820D01*
X104559000Y-81521803D01*
X104559000Y-81038196D01*
X104571313Y-80913179D01*
X104582318Y-80876900D01*
X104619975Y-80752761D01*
X104619976Y-80752759D01*
X104619977Y-80752756D01*
X104698993Y-80604926D01*
X104762765Y-80527221D01*
X104805342Y-80475341D01*
X104805344Y-80475339D01*
X104934923Y-80368995D01*
X105082757Y-80289977D01*
X105082760Y-80289976D01*
X105082762Y-80289975D01*
X105243176Y-80241314D01*
X105243177Y-80241314D01*
X105243180Y-80241313D01*
X105410000Y-80224883D01*
X105576821Y-80241313D01*
X105576821Y-80241313D01*
G37*
G36*
X110656821Y-80241313D02*
X110656824Y-80241314D01*
X110656825Y-80241314D01*
X110817239Y-80289975D01*
X110817241Y-80289976D01*
X110817244Y-80289977D01*
X110965078Y-80368995D01*
X111094659Y-80475341D01*
X111201005Y-80604922D01*
X111280023Y-80752756D01*
X111280024Y-80752759D01*
X111280025Y-80752761D01*
X111328686Y-80913175D01*
X111328686Y-80913178D01*
X111328687Y-80913180D01*
X111341000Y-81038197D01*
X111341000Y-81521804D01*
X111328687Y-81646821D01*
X111328686Y-81646824D01*
X111328686Y-81646825D01*
X111287381Y-81782991D01*
X111280023Y-81807244D01*
X111201005Y-81955078D01*
X111094659Y-82084659D01*
X110965078Y-82191005D01*
X110817243Y-82270023D01*
X110817240Y-82270024D01*
X110817238Y-82270025D01*
X110656824Y-82318686D01*
X110656823Y-82318686D01*
X110656820Y-82318687D01*
X110490000Y-82335117D01*
X110323179Y-82318687D01*
X110323176Y-82318686D01*
X110323175Y-82318686D01*
X110162761Y-82270025D01*
X110162759Y-82270024D01*
X110162756Y-82270023D01*
X110014922Y-82191005D01*
X109885341Y-82084659D01*
X109778995Y-81955078D01*
X109699977Y-81807243D01*
X109692620Y-81782989D01*
X109651314Y-81646824D01*
X109651314Y-81646823D01*
X109651313Y-81646820D01*
X109639000Y-81521803D01*
X109639000Y-81038196D01*
X109651313Y-80913179D01*
X109662318Y-80876900D01*
X109699975Y-80752761D01*
X109699976Y-80752759D01*
X109699977Y-80752756D01*
X109778993Y-80604926D01*
X109842765Y-80527221D01*
X109885342Y-80475341D01*
X109885344Y-80475339D01*
X110014923Y-80368995D01*
X110162757Y-80289977D01*
X110162760Y-80289976D01*
X110162762Y-80289975D01*
X110323176Y-80241314D01*
X110323177Y-80241314D01*
X110323180Y-80241313D01*
X110490000Y-80224883D01*
X110656821Y-80241313D01*
X110656821Y-80241313D01*
G37*
G36*
X113196821Y-80241313D02*
X113196824Y-80241314D01*
X113196825Y-80241314D01*
X113357239Y-80289975D01*
X113357241Y-80289976D01*
X113357244Y-80289977D01*
X113505078Y-80368995D01*
X113634659Y-80475341D01*
X113741005Y-80604922D01*
X113820023Y-80752756D01*
X113820024Y-80752759D01*
X113820025Y-80752761D01*
X113868686Y-80913175D01*
X113868686Y-80913178D01*
X113868687Y-80913180D01*
X113881000Y-81038197D01*
X113881000Y-81521804D01*
X113868687Y-81646821D01*
X113868686Y-81646824D01*
X113868686Y-81646825D01*
X113827381Y-81782991D01*
X113820023Y-81807244D01*
X113741005Y-81955078D01*
X113634659Y-82084659D01*
X113505078Y-82191005D01*
X113357243Y-82270023D01*
X113357240Y-82270024D01*
X113357238Y-82270025D01*
X113196824Y-82318686D01*
X113196823Y-82318686D01*
X113196820Y-82318687D01*
X113030000Y-82335117D01*
X112863179Y-82318687D01*
X112863176Y-82318686D01*
X112863175Y-82318686D01*
X112702761Y-82270025D01*
X112702759Y-82270024D01*
X112702756Y-82270023D01*
X112554922Y-82191005D01*
X112425341Y-82084659D01*
X112318995Y-81955078D01*
X112239977Y-81807243D01*
X112232620Y-81782989D01*
X112191314Y-81646824D01*
X112191314Y-81646823D01*
X112191313Y-81646820D01*
X112179000Y-81521803D01*
X112179000Y-81038196D01*
X112191313Y-80913179D01*
X112202318Y-80876900D01*
X112239975Y-80752761D01*
X112239976Y-80752759D01*
X112239977Y-80752756D01*
X112318993Y-80604926D01*
X112382765Y-80527221D01*
X112425342Y-80475341D01*
X112425344Y-80475339D01*
X112554923Y-80368995D01*
X112702757Y-80289977D01*
X112702760Y-80289976D01*
X112702762Y-80289975D01*
X112863176Y-80241314D01*
X112863177Y-80241314D01*
X112863180Y-80241313D01*
X113030000Y-80224883D01*
X113196821Y-80241313D01*
X113196821Y-80241313D01*
G37*
G36*
X120816821Y-80241313D02*
X120816824Y-80241314D01*
X120816825Y-80241314D01*
X120977239Y-80289975D01*
X120977241Y-80289976D01*
X120977244Y-80289977D01*
X121125078Y-80368995D01*
X121254659Y-80475341D01*
X121361005Y-80604922D01*
X121440023Y-80752756D01*
X121440024Y-80752759D01*
X121440025Y-80752761D01*
X121488686Y-80913175D01*
X121488686Y-80913178D01*
X121488687Y-80913180D01*
X121501000Y-81038197D01*
X121501000Y-81521804D01*
X121488687Y-81646821D01*
X121488686Y-81646824D01*
X121488686Y-81646825D01*
X121447381Y-81782991D01*
X121440023Y-81807244D01*
X121361005Y-81955078D01*
X121254659Y-82084659D01*
X121125078Y-82191005D01*
X120977243Y-82270023D01*
X120977240Y-82270024D01*
X120977238Y-82270025D01*
X120816824Y-82318686D01*
X120816823Y-82318686D01*
X120816820Y-82318687D01*
X120650000Y-82335117D01*
X120483179Y-82318687D01*
X120483176Y-82318686D01*
X120483175Y-82318686D01*
X120322761Y-82270025D01*
X120322759Y-82270024D01*
X120322756Y-82270023D01*
X120174922Y-82191005D01*
X120045341Y-82084659D01*
X119938995Y-81955078D01*
X119859977Y-81807243D01*
X119852620Y-81782989D01*
X119811314Y-81646824D01*
X119811314Y-81646823D01*
X119811313Y-81646820D01*
X119799000Y-81521803D01*
X119799000Y-81038196D01*
X119811313Y-80913179D01*
X119822318Y-80876900D01*
X119859975Y-80752761D01*
X119859976Y-80752759D01*
X119859977Y-80752756D01*
X119938993Y-80604926D01*
X120002765Y-80527221D01*
X120045342Y-80475341D01*
X120045344Y-80475339D01*
X120174923Y-80368995D01*
X120322757Y-80289977D01*
X120322760Y-80289976D01*
X120322762Y-80289975D01*
X120483176Y-80241314D01*
X120483177Y-80241314D01*
X120483180Y-80241313D01*
X120650000Y-80224883D01*
X120816821Y-80241313D01*
X120816821Y-80241313D01*
G37*
G36*
X108116821Y-80241313D02*
X108116824Y-80241314D01*
X108116825Y-80241314D01*
X108277239Y-80289975D01*
X108277241Y-80289976D01*
X108277244Y-80289977D01*
X108425078Y-80368995D01*
X108554659Y-80475341D01*
X108661005Y-80604922D01*
X108740023Y-80752756D01*
X108740024Y-80752759D01*
X108740025Y-80752761D01*
X108788686Y-80913175D01*
X108788686Y-80913178D01*
X108788687Y-80913180D01*
X108801000Y-81038197D01*
X108801000Y-81521804D01*
X108788687Y-81646821D01*
X108788686Y-81646824D01*
X108788686Y-81646825D01*
X108747381Y-81782991D01*
X108740023Y-81807244D01*
X108661005Y-81955078D01*
X108554659Y-82084659D01*
X108425078Y-82191005D01*
X108277243Y-82270023D01*
X108277240Y-82270024D01*
X108277238Y-82270025D01*
X108116824Y-82318686D01*
X108116823Y-82318686D01*
X108116820Y-82318687D01*
X107950000Y-82335117D01*
X107783179Y-82318687D01*
X107783176Y-82318686D01*
X107783175Y-82318686D01*
X107622761Y-82270025D01*
X107622759Y-82270024D01*
X107622756Y-82270023D01*
X107474922Y-82191005D01*
X107345341Y-82084659D01*
X107238995Y-81955078D01*
X107159977Y-81807243D01*
X107152620Y-81782989D01*
X107111314Y-81646824D01*
X107111314Y-81646823D01*
X107111313Y-81646820D01*
X107099000Y-81521803D01*
X107099000Y-81038196D01*
X107111313Y-80913179D01*
X107122318Y-80876900D01*
X107159975Y-80752761D01*
X107159976Y-80752759D01*
X107159977Y-80752756D01*
X107238993Y-80604926D01*
X107302765Y-80527221D01*
X107345342Y-80475341D01*
X107345344Y-80475339D01*
X107474923Y-80368995D01*
X107622757Y-80289977D01*
X107622760Y-80289976D01*
X107622762Y-80289975D01*
X107783176Y-80241314D01*
X107783177Y-80241314D01*
X107783180Y-80241313D01*
X107950000Y-80224883D01*
X108116821Y-80241313D01*
X108116821Y-80241313D01*
G37*
G36*
X115736821Y-80241313D02*
X115736824Y-80241314D01*
X115736825Y-80241314D01*
X115897239Y-80289975D01*
X115897241Y-80289976D01*
X115897244Y-80289977D01*
X116045078Y-80368995D01*
X116174659Y-80475341D01*
X116281005Y-80604922D01*
X116360023Y-80752756D01*
X116360024Y-80752759D01*
X116360025Y-80752761D01*
X116408686Y-80913175D01*
X116408686Y-80913178D01*
X116408687Y-80913180D01*
X116421000Y-81038197D01*
X116421000Y-81521804D01*
X116408687Y-81646821D01*
X116408686Y-81646824D01*
X116408686Y-81646825D01*
X116367381Y-81782991D01*
X116360023Y-81807244D01*
X116281005Y-81955078D01*
X116174659Y-82084659D01*
X116045078Y-82191005D01*
X115897243Y-82270023D01*
X115897240Y-82270024D01*
X115897238Y-82270025D01*
X115736824Y-82318686D01*
X115736823Y-82318686D01*
X115736820Y-82318687D01*
X115570000Y-82335117D01*
X115403179Y-82318687D01*
X115403176Y-82318686D01*
X115403175Y-82318686D01*
X115242761Y-82270025D01*
X115242759Y-82270024D01*
X115242756Y-82270023D01*
X115094922Y-82191005D01*
X114965341Y-82084659D01*
X114858995Y-81955078D01*
X114779977Y-81807243D01*
X114772620Y-81782989D01*
X114731314Y-81646824D01*
X114731314Y-81646823D01*
X114731313Y-81646820D01*
X114719000Y-81521803D01*
X114719000Y-81038196D01*
X114731313Y-80913179D01*
X114742318Y-80876900D01*
X114779975Y-80752761D01*
X114779976Y-80752759D01*
X114779977Y-80752756D01*
X114858993Y-80604926D01*
X114922765Y-80527221D01*
X114965342Y-80475341D01*
X114965344Y-80475339D01*
X115094923Y-80368995D01*
X115242757Y-80289977D01*
X115242760Y-80289976D01*
X115242762Y-80289975D01*
X115403176Y-80241314D01*
X115403177Y-80241314D01*
X115403180Y-80241313D01*
X115570000Y-80224883D01*
X115736821Y-80241313D01*
X115736821Y-80241313D01*
G37*
G36*
X118276821Y-80241313D02*
X118276824Y-80241314D01*
X118276825Y-80241314D01*
X118437239Y-80289975D01*
X118437241Y-80289976D01*
X118437244Y-80289977D01*
X118585078Y-80368995D01*
X118714659Y-80475341D01*
X118821005Y-80604922D01*
X118900023Y-80752756D01*
X118900024Y-80752759D01*
X118900025Y-80752761D01*
X118948686Y-80913175D01*
X118948686Y-80913178D01*
X118948687Y-80913180D01*
X118961000Y-81038197D01*
X118961000Y-81521804D01*
X118948687Y-81646821D01*
X118948686Y-81646824D01*
X118948686Y-81646825D01*
X118907381Y-81782991D01*
X118900023Y-81807244D01*
X118821005Y-81955078D01*
X118714659Y-82084659D01*
X118585078Y-82191005D01*
X118437243Y-82270023D01*
X118437240Y-82270024D01*
X118437238Y-82270025D01*
X118276824Y-82318686D01*
X118276823Y-82318686D01*
X118276820Y-82318687D01*
X118110000Y-82335117D01*
X117943179Y-82318687D01*
X117943176Y-82318686D01*
X117943175Y-82318686D01*
X117782761Y-82270025D01*
X117782759Y-82270024D01*
X117782756Y-82270023D01*
X117634922Y-82191005D01*
X117505341Y-82084659D01*
X117398995Y-81955078D01*
X117319977Y-81807243D01*
X117312620Y-81782989D01*
X117271314Y-81646824D01*
X117271314Y-81646823D01*
X117271313Y-81646820D01*
X117259000Y-81521803D01*
X117259000Y-81038196D01*
X117271313Y-80913179D01*
X117282318Y-80876900D01*
X117319975Y-80752761D01*
X117319976Y-80752759D01*
X117319977Y-80752756D01*
X117398993Y-80604926D01*
X117462765Y-80527221D01*
X117505342Y-80475341D01*
X117505344Y-80475339D01*
X117634923Y-80368995D01*
X117782757Y-80289977D01*
X117782760Y-80289976D01*
X117782762Y-80289975D01*
X117943176Y-80241314D01*
X117943177Y-80241314D01*
X117943180Y-80241313D01*
X118110000Y-80224883D01*
X118276821Y-80241313D01*
X118276821Y-80241313D01*
G37*
G36*
X124241000Y-82331000D02*
X122139000Y-82331000D01*
X122139000Y-80229000D01*
X124241000Y-80229000D01*
X124241000Y-82331000D01*
X124241000Y-82331000D01*
G37*
G36*
X139810442Y-80385518D02*
X139876627Y-80392037D01*
X139989853Y-80426384D01*
X140046467Y-80443557D01*
X140133311Y-80489977D01*
X140202991Y-80527222D01*
X140238729Y-80556552D01*
X140340186Y-80639814D01*
X140420369Y-80737519D01*
X140452778Y-80777009D01*
X140452779Y-80777011D01*
X140536443Y-80933533D01*
X140553616Y-80990147D01*
X140587963Y-81103373D01*
X140605359Y-81280000D01*
X140587963Y-81456627D01*
X140568193Y-81521799D01*
X140536443Y-81626467D01*
X140467698Y-81755078D01*
X140452778Y-81782991D01*
X140432879Y-81807238D01*
X140340186Y-81920186D01*
X140238729Y-82003448D01*
X140202991Y-82032778D01*
X140202989Y-82032779D01*
X140046467Y-82116443D01*
X140039069Y-82118687D01*
X139876627Y-82167963D01*
X139810443Y-82174481D01*
X139744260Y-82181000D01*
X139655740Y-82181000D01*
X139589557Y-82174481D01*
X139523373Y-82167963D01*
X139360931Y-82118687D01*
X139353533Y-82116443D01*
X139197011Y-82032779D01*
X139197009Y-82032778D01*
X139161271Y-82003448D01*
X139059814Y-81920186D01*
X138967121Y-81807238D01*
X138947222Y-81782991D01*
X138932302Y-81755078D01*
X138863557Y-81626467D01*
X138831807Y-81521799D01*
X138812037Y-81456627D01*
X138794641Y-81280000D01*
X138812037Y-81103373D01*
X138846384Y-80990147D01*
X138863557Y-80933533D01*
X138947221Y-80777011D01*
X138947222Y-80777009D01*
X138979631Y-80737519D01*
X139059814Y-80639814D01*
X139161271Y-80556552D01*
X139197009Y-80527222D01*
X139266689Y-80489977D01*
X139353533Y-80443557D01*
X139410147Y-80426384D01*
X139523373Y-80392037D01*
X139589558Y-80385518D01*
X139655740Y-80379000D01*
X139744260Y-80379000D01*
X139810442Y-80385518D01*
X139810442Y-80385518D01*
G37*
G36*
X171560442Y-80385518D02*
X171626627Y-80392037D01*
X171739853Y-80426384D01*
X171796467Y-80443557D01*
X171883311Y-80489977D01*
X171952991Y-80527222D01*
X171988729Y-80556552D01*
X172090186Y-80639814D01*
X172170369Y-80737519D01*
X172202778Y-80777009D01*
X172202779Y-80777011D01*
X172286443Y-80933533D01*
X172303616Y-80990147D01*
X172337963Y-81103373D01*
X172355359Y-81280000D01*
X172337963Y-81456627D01*
X172318193Y-81521799D01*
X172286443Y-81626467D01*
X172217698Y-81755078D01*
X172202778Y-81782991D01*
X172182879Y-81807238D01*
X172090186Y-81920186D01*
X171988729Y-82003448D01*
X171952991Y-82032778D01*
X171952989Y-82032779D01*
X171796467Y-82116443D01*
X171789069Y-82118687D01*
X171626627Y-82167963D01*
X171560443Y-82174481D01*
X171494260Y-82181000D01*
X171405740Y-82181000D01*
X171339557Y-82174481D01*
X171273373Y-82167963D01*
X171110931Y-82118687D01*
X171103533Y-82116443D01*
X170947011Y-82032779D01*
X170947009Y-82032778D01*
X170911271Y-82003448D01*
X170809814Y-81920186D01*
X170717121Y-81807238D01*
X170697222Y-81782991D01*
X170682302Y-81755078D01*
X170613557Y-81626467D01*
X170581807Y-81521799D01*
X170562037Y-81456627D01*
X170544641Y-81280000D01*
X170562037Y-81103373D01*
X170596384Y-80990147D01*
X170613557Y-80933533D01*
X170697221Y-80777011D01*
X170697222Y-80777009D01*
X170729631Y-80737519D01*
X170809814Y-80639814D01*
X170911271Y-80556552D01*
X170947009Y-80527222D01*
X171016689Y-80489977D01*
X171103533Y-80443557D01*
X171160147Y-80426384D01*
X171273373Y-80392037D01*
X171339558Y-80385518D01*
X171405740Y-80379000D01*
X171494260Y-80379000D01*
X171560442Y-80385518D01*
X171560442Y-80385518D01*
G37*
G36*
X165210442Y-80385518D02*
X165276627Y-80392037D01*
X165389853Y-80426384D01*
X165446467Y-80443557D01*
X165533311Y-80489977D01*
X165602991Y-80527222D01*
X165638729Y-80556552D01*
X165740186Y-80639814D01*
X165820369Y-80737519D01*
X165852778Y-80777009D01*
X165852779Y-80777011D01*
X165936443Y-80933533D01*
X165953616Y-80990147D01*
X165987963Y-81103373D01*
X166005359Y-81280000D01*
X165987963Y-81456627D01*
X165968193Y-81521799D01*
X165936443Y-81626467D01*
X165867698Y-81755078D01*
X165852778Y-81782991D01*
X165832879Y-81807238D01*
X165740186Y-81920186D01*
X165638729Y-82003448D01*
X165602991Y-82032778D01*
X165602989Y-82032779D01*
X165446467Y-82116443D01*
X165439069Y-82118687D01*
X165276627Y-82167963D01*
X165210443Y-82174481D01*
X165144260Y-82181000D01*
X165055740Y-82181000D01*
X164989557Y-82174481D01*
X164923373Y-82167963D01*
X164760931Y-82118687D01*
X164753533Y-82116443D01*
X164597011Y-82032779D01*
X164597009Y-82032778D01*
X164561271Y-82003448D01*
X164459814Y-81920186D01*
X164367121Y-81807238D01*
X164347222Y-81782991D01*
X164332302Y-81755078D01*
X164263557Y-81626467D01*
X164231807Y-81521799D01*
X164212037Y-81456627D01*
X164194641Y-81280000D01*
X164212037Y-81103373D01*
X164246384Y-80990147D01*
X164263557Y-80933533D01*
X164347221Y-80777011D01*
X164347222Y-80777009D01*
X164379631Y-80737519D01*
X164459814Y-80639814D01*
X164561271Y-80556552D01*
X164597009Y-80527222D01*
X164666689Y-80489977D01*
X164753533Y-80443557D01*
X164810147Y-80426384D01*
X164923373Y-80392037D01*
X164989558Y-80385518D01*
X165055740Y-80379000D01*
X165144260Y-80379000D01*
X165210442Y-80385518D01*
X165210442Y-80385518D01*
G37*
G36*
X142350442Y-80385518D02*
X142416627Y-80392037D01*
X142529853Y-80426384D01*
X142586467Y-80443557D01*
X142673311Y-80489977D01*
X142742991Y-80527222D01*
X142778729Y-80556552D01*
X142880186Y-80639814D01*
X142960369Y-80737519D01*
X142992778Y-80777009D01*
X142992779Y-80777011D01*
X143076443Y-80933533D01*
X143093616Y-80990147D01*
X143127963Y-81103373D01*
X143145359Y-81280000D01*
X143127963Y-81456627D01*
X143108193Y-81521799D01*
X143076443Y-81626467D01*
X143007698Y-81755078D01*
X142992778Y-81782991D01*
X142972879Y-81807238D01*
X142880186Y-81920186D01*
X142778729Y-82003448D01*
X142742991Y-82032778D01*
X142742989Y-82032779D01*
X142586467Y-82116443D01*
X142579069Y-82118687D01*
X142416627Y-82167963D01*
X142350443Y-82174481D01*
X142284260Y-82181000D01*
X142195740Y-82181000D01*
X142129557Y-82174481D01*
X142063373Y-82167963D01*
X141900931Y-82118687D01*
X141893533Y-82116443D01*
X141737011Y-82032779D01*
X141737009Y-82032778D01*
X141701271Y-82003448D01*
X141599814Y-81920186D01*
X141507121Y-81807238D01*
X141487222Y-81782991D01*
X141472302Y-81755078D01*
X141403557Y-81626467D01*
X141371807Y-81521799D01*
X141352037Y-81456627D01*
X141334641Y-81280000D01*
X141352037Y-81103373D01*
X141386384Y-80990147D01*
X141403557Y-80933533D01*
X141487221Y-80777011D01*
X141487222Y-80777009D01*
X141519631Y-80737519D01*
X141599814Y-80639814D01*
X141701271Y-80556552D01*
X141737009Y-80527222D01*
X141806689Y-80489977D01*
X141893533Y-80443557D01*
X141950147Y-80426384D01*
X142063373Y-80392037D01*
X142129558Y-80385518D01*
X142195740Y-80379000D01*
X142284260Y-80379000D01*
X142350442Y-80385518D01*
X142350442Y-80385518D01*
G37*
G36*
X137270442Y-80385518D02*
X137336627Y-80392037D01*
X137449853Y-80426384D01*
X137506467Y-80443557D01*
X137593311Y-80489977D01*
X137662991Y-80527222D01*
X137698729Y-80556552D01*
X137800186Y-80639814D01*
X137880369Y-80737519D01*
X137912778Y-80777009D01*
X137912779Y-80777011D01*
X137996443Y-80933533D01*
X138013616Y-80990147D01*
X138047963Y-81103373D01*
X138065359Y-81280000D01*
X138047963Y-81456627D01*
X138028193Y-81521799D01*
X137996443Y-81626467D01*
X137927698Y-81755078D01*
X137912778Y-81782991D01*
X137892879Y-81807238D01*
X137800186Y-81920186D01*
X137698729Y-82003448D01*
X137662991Y-82032778D01*
X137662989Y-82032779D01*
X137506467Y-82116443D01*
X137499069Y-82118687D01*
X137336627Y-82167963D01*
X137270443Y-82174481D01*
X137204260Y-82181000D01*
X137115740Y-82181000D01*
X137049557Y-82174481D01*
X136983373Y-82167963D01*
X136820931Y-82118687D01*
X136813533Y-82116443D01*
X136657011Y-82032779D01*
X136657009Y-82032778D01*
X136621271Y-82003448D01*
X136519814Y-81920186D01*
X136427121Y-81807238D01*
X136407222Y-81782991D01*
X136392302Y-81755078D01*
X136323557Y-81626467D01*
X136291807Y-81521799D01*
X136272037Y-81456627D01*
X136254641Y-81280000D01*
X136272037Y-81103373D01*
X136306384Y-80990147D01*
X136323557Y-80933533D01*
X136407221Y-80777011D01*
X136407222Y-80777009D01*
X136439631Y-80737519D01*
X136519814Y-80639814D01*
X136621271Y-80556552D01*
X136657009Y-80527222D01*
X136726689Y-80489977D01*
X136813533Y-80443557D01*
X136870147Y-80426384D01*
X136983373Y-80392037D01*
X137049558Y-80385518D01*
X137115740Y-80379000D01*
X137204260Y-80379000D01*
X137270442Y-80385518D01*
X137270442Y-80385518D01*
G37*
G36*
X157728228Y-80461703D02*
X157883100Y-80525853D01*
X158022481Y-80618985D01*
X158141015Y-80737519D01*
X158234147Y-80876900D01*
X158298297Y-81031772D01*
X158331000Y-81196184D01*
X158331000Y-81363816D01*
X158298297Y-81528228D01*
X158234147Y-81683100D01*
X158141015Y-81822481D01*
X158022481Y-81941015D01*
X157883100Y-82034147D01*
X157728228Y-82098297D01*
X157563816Y-82131000D01*
X157396184Y-82131000D01*
X157231772Y-82098297D01*
X157076900Y-82034147D01*
X156937519Y-81941015D01*
X156818985Y-81822481D01*
X156725853Y-81683100D01*
X156661703Y-81528228D01*
X156629000Y-81363816D01*
X156629000Y-81196184D01*
X156661703Y-81031772D01*
X156725853Y-80876900D01*
X156818985Y-80737519D01*
X156937519Y-80618985D01*
X157076900Y-80525853D01*
X157231772Y-80461703D01*
X157396184Y-80429000D01*
X157563816Y-80429000D01*
X157728228Y-80461703D01*
X157728228Y-80461703D01*
G37*
G36*
X150026821Y-80441313D02*
X150026824Y-80441314D01*
X150026825Y-80441314D01*
X150187239Y-80489975D01*
X150187241Y-80489976D01*
X150187244Y-80489977D01*
X150335078Y-80568995D01*
X150464659Y-80675341D01*
X150571005Y-80804922D01*
X150650023Y-80952756D01*
X150650024Y-80952759D01*
X150650025Y-80952761D01*
X150695713Y-81103375D01*
X150698687Y-81113179D01*
X150715117Y-81280000D01*
X150698687Y-81446821D01*
X150698686Y-81446824D01*
X150698686Y-81446825D01*
X150673993Y-81528228D01*
X150650023Y-81607244D01*
X150571005Y-81755078D01*
X150464659Y-81884659D01*
X150335078Y-81991005D01*
X150187244Y-82070023D01*
X150187241Y-82070024D01*
X150187239Y-82070025D01*
X150026825Y-82118686D01*
X150026824Y-82118686D01*
X150026821Y-82118687D01*
X149901804Y-82131000D01*
X149818196Y-82131000D01*
X149693179Y-82118687D01*
X149693176Y-82118686D01*
X149693175Y-82118686D01*
X149532761Y-82070025D01*
X149532759Y-82070024D01*
X149532756Y-82070023D01*
X149384922Y-81991005D01*
X149255341Y-81884659D01*
X149148995Y-81755078D01*
X149069977Y-81607244D01*
X149046008Y-81528228D01*
X149021314Y-81446825D01*
X149021314Y-81446824D01*
X149021313Y-81446821D01*
X149004883Y-81280000D01*
X149021313Y-81113179D01*
X149024287Y-81103375D01*
X149069975Y-80952761D01*
X149069976Y-80952759D01*
X149069977Y-80952756D01*
X149148995Y-80804922D01*
X149255341Y-80675341D01*
X149384922Y-80568995D01*
X149532756Y-80489977D01*
X149532759Y-80489976D01*
X149532761Y-80489975D01*
X149693175Y-80441314D01*
X149693176Y-80441314D01*
X149693179Y-80441313D01*
X149818196Y-80429000D01*
X149901804Y-80429000D01*
X150026821Y-80441313D01*
X150026821Y-80441313D01*
G37*
M02*
