%TF.GenerationSoftware,KiCad,Pcbnew,5.0.2-bee76a0~70~ubuntu18.04.1*%
%TF.CreationDate,2019-09-08T14:19:54+02:00*%
%TF.ProjectId,PflanzenClient_D1Mini_LiFePo4,50666c61-6e7a-4656-9e43-6c69656e745f,rev?*%
%TF.SameCoordinates,Original*%
%TF.FileFunction,Legend,Top*%
%TF.FilePolarity,Positive*%
%FSLAX46Y46*%
G04 Gerber Fmt 4.6, Leading zero omitted, Abs format (unit mm)*
G04 Created by KiCad (PCBNEW 5.0.2-bee76a0~70~ubuntu18.04.1) date So 08 Sep 2019 14:19:54 CEST*
%MOMM*%
%LPD*%
G01*
G04 APERTURE LIST*
%ADD10C,0.150000*%
%ADD11C,0.120000*%
G04 APERTURE END LIST*
D10*
X134588214Y-86431380D02*
X134016785Y-86431380D01*
X134302500Y-86431380D02*
X134302500Y-85431380D01*
X134207261Y-85574238D01*
X134112023Y-85669476D01*
X134016785Y-85717095D01*
X104256000Y-108746857D02*
X104256000Y-107546857D01*
X104713142Y-107546857D01*
X104827428Y-107604000D01*
X104884571Y-107661142D01*
X104941714Y-107775428D01*
X104941714Y-107946857D01*
X104884571Y-108061142D01*
X104827428Y-108118285D01*
X104713142Y-108175428D01*
X104256000Y-108175428D01*
X105284571Y-107946857D02*
X105741714Y-107946857D01*
X105456000Y-108746857D02*
X105456000Y-107718285D01*
X105513142Y-107604000D01*
X105627428Y-107546857D01*
X105741714Y-107546857D01*
X106313142Y-108746857D02*
X106198857Y-108689714D01*
X106141714Y-108575428D01*
X106141714Y-107546857D01*
X107284571Y-108746857D02*
X107284571Y-108118285D01*
X107227428Y-108004000D01*
X107113142Y-107946857D01*
X106884571Y-107946857D01*
X106770285Y-108004000D01*
X107284571Y-108689714D02*
X107170285Y-108746857D01*
X106884571Y-108746857D01*
X106770285Y-108689714D01*
X106713142Y-108575428D01*
X106713142Y-108461142D01*
X106770285Y-108346857D01*
X106884571Y-108289714D01*
X107170285Y-108289714D01*
X107284571Y-108232571D01*
X107856000Y-107946857D02*
X107856000Y-108746857D01*
X107856000Y-108061142D02*
X107913142Y-108004000D01*
X108027428Y-107946857D01*
X108198857Y-107946857D01*
X108313142Y-108004000D01*
X108370285Y-108118285D01*
X108370285Y-108746857D01*
X108827428Y-107946857D02*
X109456000Y-107946857D01*
X108827428Y-108746857D01*
X109456000Y-108746857D01*
X110370285Y-108689714D02*
X110256000Y-108746857D01*
X110027428Y-108746857D01*
X109913142Y-108689714D01*
X109856000Y-108575428D01*
X109856000Y-108118285D01*
X109913142Y-108004000D01*
X110027428Y-107946857D01*
X110256000Y-107946857D01*
X110370285Y-108004000D01*
X110427428Y-108118285D01*
X110427428Y-108232571D01*
X109856000Y-108346857D01*
X110941714Y-107946857D02*
X110941714Y-108746857D01*
X110941714Y-108061142D02*
X110998857Y-108004000D01*
X111113142Y-107946857D01*
X111284571Y-107946857D01*
X111398857Y-108004000D01*
X111456000Y-108118285D01*
X111456000Y-108746857D01*
X112713142Y-108632571D02*
X112656000Y-108689714D01*
X112484571Y-108746857D01*
X112370285Y-108746857D01*
X112198857Y-108689714D01*
X112084571Y-108575428D01*
X112027428Y-108461142D01*
X111970285Y-108232571D01*
X111970285Y-108061142D01*
X112027428Y-107832571D01*
X112084571Y-107718285D01*
X112198857Y-107604000D01*
X112370285Y-107546857D01*
X112484571Y-107546857D01*
X112656000Y-107604000D01*
X112713142Y-107661142D01*
X113398857Y-108746857D02*
X113284571Y-108689714D01*
X113227428Y-108575428D01*
X113227428Y-107546857D01*
X113856000Y-108746857D02*
X113856000Y-107946857D01*
X113856000Y-107546857D02*
X113798857Y-107604000D01*
X113856000Y-107661142D01*
X113913142Y-107604000D01*
X113856000Y-107546857D01*
X113856000Y-107661142D01*
X114884571Y-108689714D02*
X114770285Y-108746857D01*
X114541714Y-108746857D01*
X114427428Y-108689714D01*
X114370285Y-108575428D01*
X114370285Y-108118285D01*
X114427428Y-108004000D01*
X114541714Y-107946857D01*
X114770285Y-107946857D01*
X114884571Y-108004000D01*
X114941714Y-108118285D01*
X114941714Y-108232571D01*
X114370285Y-108346857D01*
X115456000Y-107946857D02*
X115456000Y-108746857D01*
X115456000Y-108061142D02*
X115513142Y-108004000D01*
X115627428Y-107946857D01*
X115798857Y-107946857D01*
X115913142Y-108004000D01*
X115970285Y-108118285D01*
X115970285Y-108746857D01*
X116370285Y-107946857D02*
X116827428Y-107946857D01*
X116541714Y-107546857D02*
X116541714Y-108575428D01*
X116598857Y-108689714D01*
X116713142Y-108746857D01*
X116827428Y-108746857D01*
X116941714Y-108861142D02*
X117856000Y-108861142D01*
X118141714Y-108746857D02*
X118141714Y-107546857D01*
X118427428Y-107546857D01*
X118598857Y-107604000D01*
X118713142Y-107718285D01*
X118770285Y-107832571D01*
X118827428Y-108061142D01*
X118827428Y-108232571D01*
X118770285Y-108461142D01*
X118713142Y-108575428D01*
X118598857Y-108689714D01*
X118427428Y-108746857D01*
X118141714Y-108746857D01*
X119970285Y-108746857D02*
X119284571Y-108746857D01*
X119627428Y-108746857D02*
X119627428Y-107546857D01*
X119513142Y-107718285D01*
X119398857Y-107832571D01*
X119284571Y-107889714D01*
X120484571Y-108746857D02*
X120484571Y-107546857D01*
X120884571Y-108404000D01*
X121284571Y-107546857D01*
X121284571Y-108746857D01*
X121856000Y-108746857D02*
X121856000Y-107946857D01*
X121856000Y-107546857D02*
X121798857Y-107604000D01*
X121856000Y-107661142D01*
X121913142Y-107604000D01*
X121856000Y-107546857D01*
X121856000Y-107661142D01*
X122427428Y-107946857D02*
X122427428Y-108746857D01*
X122427428Y-108061142D02*
X122484571Y-108004000D01*
X122598857Y-107946857D01*
X122770285Y-107946857D01*
X122884571Y-108004000D01*
X122941714Y-108118285D01*
X122941714Y-108746857D01*
X123513142Y-108746857D02*
X123513142Y-107946857D01*
X123513142Y-107546857D02*
X123456000Y-107604000D01*
X123513142Y-107661142D01*
X123570285Y-107604000D01*
X123513142Y-107546857D01*
X123513142Y-107661142D01*
X123798857Y-108861142D02*
X124713142Y-108861142D01*
X125570285Y-108746857D02*
X124998857Y-108746857D01*
X124998857Y-107546857D01*
X125970285Y-108746857D02*
X125970285Y-107946857D01*
X125970285Y-107546857D02*
X125913142Y-107604000D01*
X125970285Y-107661142D01*
X126027428Y-107604000D01*
X125970285Y-107546857D01*
X125970285Y-107661142D01*
X126941714Y-108118285D02*
X126541714Y-108118285D01*
X126541714Y-108746857D02*
X126541714Y-107546857D01*
X127113142Y-107546857D01*
X128027428Y-108689714D02*
X127913142Y-108746857D01*
X127684571Y-108746857D01*
X127570285Y-108689714D01*
X127513142Y-108575428D01*
X127513142Y-108118285D01*
X127570285Y-108004000D01*
X127684571Y-107946857D01*
X127913142Y-107946857D01*
X128027428Y-108004000D01*
X128084571Y-108118285D01*
X128084571Y-108232571D01*
X127513142Y-108346857D01*
X128598857Y-108746857D02*
X128598857Y-107546857D01*
X129056000Y-107546857D01*
X129170285Y-107604000D01*
X129227428Y-107661142D01*
X129284571Y-107775428D01*
X129284571Y-107946857D01*
X129227428Y-108061142D01*
X129170285Y-108118285D01*
X129056000Y-108175428D01*
X128598857Y-108175428D01*
X129970285Y-108746857D02*
X129856000Y-108689714D01*
X129798857Y-108632571D01*
X129741714Y-108518285D01*
X129741714Y-108175428D01*
X129798857Y-108061142D01*
X129856000Y-108004000D01*
X129970285Y-107946857D01*
X130141714Y-107946857D01*
X130256000Y-108004000D01*
X130313142Y-108061142D01*
X130370285Y-108175428D01*
X130370285Y-108518285D01*
X130313142Y-108632571D01*
X130256000Y-108689714D01*
X130141714Y-108746857D01*
X129970285Y-108746857D01*
X131398857Y-107946857D02*
X131398857Y-108746857D01*
X131113142Y-107489714D02*
X130827428Y-108346857D01*
X131570285Y-108346857D01*
X157976285Y-108746857D02*
X157976285Y-107546857D01*
X157976285Y-108118285D02*
X158662000Y-108118285D01*
X158662000Y-108746857D02*
X158662000Y-107546857D01*
X159747714Y-108746857D02*
X159747714Y-108118285D01*
X159690571Y-108004000D01*
X159576285Y-107946857D01*
X159347714Y-107946857D01*
X159233428Y-108004000D01*
X159747714Y-108689714D02*
X159633428Y-108746857D01*
X159347714Y-108746857D01*
X159233428Y-108689714D01*
X159176285Y-108575428D01*
X159176285Y-108461142D01*
X159233428Y-108346857D01*
X159347714Y-108289714D01*
X159633428Y-108289714D01*
X159747714Y-108232571D01*
X160319142Y-108746857D02*
X160319142Y-107946857D01*
X160319142Y-108175428D02*
X160376285Y-108061142D01*
X160433428Y-108004000D01*
X160547714Y-107946857D01*
X160662000Y-107946857D01*
X161576285Y-108746857D02*
X161576285Y-107546857D01*
X161576285Y-108689714D02*
X161462000Y-108746857D01*
X161233428Y-108746857D01*
X161119142Y-108689714D01*
X161062000Y-108632571D01*
X161004857Y-108518285D01*
X161004857Y-108175428D01*
X161062000Y-108061142D01*
X161119142Y-108004000D01*
X161233428Y-107946857D01*
X161462000Y-107946857D01*
X161576285Y-108004000D01*
X162033428Y-107946857D02*
X162319142Y-108746857D01*
X162604857Y-107946857D02*
X162319142Y-108746857D01*
X162204857Y-109032571D01*
X162147714Y-109089714D01*
X162033428Y-109146857D01*
X163062000Y-108746857D02*
X163062000Y-107546857D01*
X163519142Y-107546857D01*
X163633428Y-107604000D01*
X163690571Y-107661142D01*
X163747714Y-107775428D01*
X163747714Y-107946857D01*
X163690571Y-108061142D01*
X163633428Y-108118285D01*
X163519142Y-108175428D01*
X163062000Y-108175428D01*
X163976285Y-108861142D02*
X164890571Y-108861142D01*
X165119142Y-107661142D02*
X165176285Y-107604000D01*
X165290571Y-107546857D01*
X165576285Y-107546857D01*
X165690571Y-107604000D01*
X165747714Y-107661142D01*
X165804857Y-107775428D01*
X165804857Y-107889714D01*
X165747714Y-108061142D01*
X165062000Y-108746857D01*
X165804857Y-108746857D01*
X166547714Y-107546857D02*
X166662000Y-107546857D01*
X166776285Y-107604000D01*
X166833428Y-107661142D01*
X166890571Y-107775428D01*
X166947714Y-108004000D01*
X166947714Y-108289714D01*
X166890571Y-108518285D01*
X166833428Y-108632571D01*
X166776285Y-108689714D01*
X166662000Y-108746857D01*
X166547714Y-108746857D01*
X166433428Y-108689714D01*
X166376285Y-108632571D01*
X166319142Y-108518285D01*
X166262000Y-108289714D01*
X166262000Y-108004000D01*
X166319142Y-107775428D01*
X166376285Y-107661142D01*
X166433428Y-107604000D01*
X166547714Y-107546857D01*
X168090571Y-108746857D02*
X167404857Y-108746857D01*
X167747714Y-108746857D02*
X167747714Y-107546857D01*
X167633428Y-107718285D01*
X167519142Y-107832571D01*
X167404857Y-107889714D01*
X168662000Y-108746857D02*
X168890571Y-108746857D01*
X169004857Y-108689714D01*
X169062000Y-108632571D01*
X169176285Y-108461142D01*
X169233428Y-108232571D01*
X169233428Y-107775428D01*
X169176285Y-107661142D01*
X169119142Y-107604000D01*
X169004857Y-107546857D01*
X168776285Y-107546857D01*
X168662000Y-107604000D01*
X168604857Y-107661142D01*
X168547714Y-107775428D01*
X168547714Y-108061142D01*
X168604857Y-108175428D01*
X168662000Y-108232571D01*
X168776285Y-108289714D01*
X169004857Y-108289714D01*
X169119142Y-108232571D01*
X169176285Y-108175428D01*
X169233428Y-108061142D01*
X169976285Y-107546857D02*
X170090571Y-107546857D01*
X170204857Y-107604000D01*
X170262000Y-107661142D01*
X170319142Y-107775428D01*
X170376285Y-108004000D01*
X170376285Y-108289714D01*
X170319142Y-108518285D01*
X170262000Y-108632571D01*
X170204857Y-108689714D01*
X170090571Y-108746857D01*
X169976285Y-108746857D01*
X169862000Y-108689714D01*
X169804857Y-108632571D01*
X169747714Y-108518285D01*
X169690571Y-108289714D01*
X169690571Y-108004000D01*
X169747714Y-107775428D01*
X169804857Y-107661142D01*
X169862000Y-107604000D01*
X169976285Y-107546857D01*
X170947714Y-108746857D02*
X171176285Y-108746857D01*
X171290571Y-108689714D01*
X171347714Y-108632571D01*
X171462000Y-108461142D01*
X171519142Y-108232571D01*
X171519142Y-107775428D01*
X171462000Y-107661142D01*
X171404857Y-107604000D01*
X171290571Y-107546857D01*
X171062000Y-107546857D01*
X170947714Y-107604000D01*
X170890571Y-107661142D01*
X170833428Y-107775428D01*
X170833428Y-108061142D01*
X170890571Y-108175428D01*
X170947714Y-108232571D01*
X171062000Y-108289714D01*
X171290571Y-108289714D01*
X171404857Y-108232571D01*
X171462000Y-108175428D01*
X171519142Y-108061142D01*
X172262000Y-107546857D02*
X172376285Y-107546857D01*
X172490571Y-107604000D01*
X172547714Y-107661142D01*
X172604857Y-107775428D01*
X172662000Y-108004000D01*
X172662000Y-108289714D01*
X172604857Y-108518285D01*
X172547714Y-108632571D01*
X172490571Y-108689714D01*
X172376285Y-108746857D01*
X172262000Y-108746857D01*
X172147714Y-108689714D01*
X172090571Y-108632571D01*
X172033428Y-108518285D01*
X171976285Y-108289714D01*
X171976285Y-108004000D01*
X172033428Y-107775428D01*
X172090571Y-107661142D01*
X172147714Y-107604000D01*
X172262000Y-107546857D01*
X173747714Y-107546857D02*
X173176285Y-107546857D01*
X173119142Y-108118285D01*
X173176285Y-108061142D01*
X173290571Y-108004000D01*
X173576285Y-108004000D01*
X173690571Y-108061142D01*
X173747714Y-108118285D01*
X173804857Y-108232571D01*
X173804857Y-108518285D01*
X173747714Y-108632571D01*
X173690571Y-108689714D01*
X173576285Y-108746857D01*
X173290571Y-108746857D01*
X173176285Y-108689714D01*
X173119142Y-108632571D01*
X107049142Y-77320857D02*
X107334857Y-78520857D01*
X107563428Y-77663714D01*
X107792000Y-78520857D01*
X108077714Y-77320857D01*
X108992000Y-78463714D02*
X108877714Y-78520857D01*
X108649142Y-78520857D01*
X108534857Y-78463714D01*
X108477714Y-78349428D01*
X108477714Y-77892285D01*
X108534857Y-77778000D01*
X108649142Y-77720857D01*
X108877714Y-77720857D01*
X108992000Y-77778000D01*
X109049142Y-77892285D01*
X109049142Y-78006571D01*
X108477714Y-78120857D01*
X109563428Y-78520857D02*
X109563428Y-77320857D01*
X109963428Y-78178000D01*
X110363428Y-77320857D01*
X110363428Y-78520857D01*
X111106285Y-78520857D02*
X110992000Y-78463714D01*
X110934857Y-78406571D01*
X110877714Y-78292285D01*
X110877714Y-77949428D01*
X110934857Y-77835142D01*
X110992000Y-77778000D01*
X111106285Y-77720857D01*
X111277714Y-77720857D01*
X111392000Y-77778000D01*
X111449142Y-77835142D01*
X111506285Y-77949428D01*
X111506285Y-78292285D01*
X111449142Y-78406571D01*
X111392000Y-78463714D01*
X111277714Y-78520857D01*
X111106285Y-78520857D01*
X111963428Y-78463714D02*
X112077714Y-78520857D01*
X112306285Y-78520857D01*
X112420571Y-78463714D01*
X112477714Y-78349428D01*
X112477714Y-78292285D01*
X112420571Y-78178000D01*
X112306285Y-78120857D01*
X112134857Y-78120857D01*
X112020571Y-78063714D01*
X111963428Y-77949428D01*
X111963428Y-77892285D01*
X112020571Y-77778000D01*
X112134857Y-77720857D01*
X112306285Y-77720857D01*
X112420571Y-77778000D01*
X112706285Y-78635142D02*
X113620571Y-78635142D01*
X113906285Y-78520857D02*
X113906285Y-77320857D01*
X114192000Y-77320857D01*
X114363428Y-77378000D01*
X114477714Y-77492285D01*
X114534857Y-77606571D01*
X114592000Y-77835142D01*
X114592000Y-78006571D01*
X114534857Y-78235142D01*
X114477714Y-78349428D01*
X114363428Y-78463714D01*
X114192000Y-78520857D01*
X113906285Y-78520857D01*
X115734857Y-78520857D02*
X115049142Y-78520857D01*
X115392000Y-78520857D02*
X115392000Y-77320857D01*
X115277714Y-77492285D01*
X115163428Y-77606571D01*
X115049142Y-77663714D01*
X115963428Y-78635142D02*
X116877714Y-78635142D01*
X117163428Y-78520857D02*
X117163428Y-77720857D01*
X117163428Y-77835142D02*
X117220571Y-77778000D01*
X117334857Y-77720857D01*
X117506285Y-77720857D01*
X117620571Y-77778000D01*
X117677714Y-77892285D01*
X117677714Y-78520857D01*
X117677714Y-77892285D02*
X117734857Y-77778000D01*
X117849142Y-77720857D01*
X118020571Y-77720857D01*
X118134857Y-77778000D01*
X118192000Y-77892285D01*
X118192000Y-78520857D01*
X118763428Y-78520857D02*
X118763428Y-77720857D01*
X118763428Y-77320857D02*
X118706285Y-77378000D01*
X118763428Y-77435142D01*
X118820571Y-77378000D01*
X118763428Y-77320857D01*
X118763428Y-77435142D01*
X119334857Y-77720857D02*
X119334857Y-78520857D01*
X119334857Y-77835142D02*
X119392000Y-77778000D01*
X119506285Y-77720857D01*
X119677714Y-77720857D01*
X119792000Y-77778000D01*
X119849142Y-77892285D01*
X119849142Y-78520857D01*
X120420571Y-78520857D02*
X120420571Y-77720857D01*
X120420571Y-77320857D02*
X120363428Y-77378000D01*
X120420571Y-77435142D01*
X120477714Y-77378000D01*
X120420571Y-77320857D01*
X120420571Y-77435142D01*
X152559142Y-100618857D02*
X152559142Y-99418857D01*
X152959142Y-100276000D01*
X153359142Y-99418857D01*
X153359142Y-100618857D01*
X153759142Y-99418857D02*
X154444857Y-99418857D01*
X154102000Y-100618857D02*
X154102000Y-99418857D01*
X154730571Y-99418857D02*
X155473428Y-99418857D01*
X155073428Y-99876000D01*
X155244857Y-99876000D01*
X155359142Y-99933142D01*
X155416285Y-99990285D01*
X155473428Y-100104571D01*
X155473428Y-100390285D01*
X155416285Y-100504571D01*
X155359142Y-100561714D01*
X155244857Y-100618857D01*
X154902000Y-100618857D01*
X154787714Y-100561714D01*
X154730571Y-100504571D01*
X156502000Y-99418857D02*
X156273428Y-99418857D01*
X156159142Y-99476000D01*
X156102000Y-99533142D01*
X155987714Y-99704571D01*
X155930571Y-99933142D01*
X155930571Y-100390285D01*
X155987714Y-100504571D01*
X156044857Y-100561714D01*
X156159142Y-100618857D01*
X156387714Y-100618857D01*
X156502000Y-100561714D01*
X156559142Y-100504571D01*
X156616285Y-100390285D01*
X156616285Y-100104571D01*
X156559142Y-99990285D01*
X156502000Y-99933142D01*
X156387714Y-99876000D01*
X156159142Y-99876000D01*
X156044857Y-99933142D01*
X155987714Y-99990285D01*
X155930571Y-100104571D01*
X157359142Y-99418857D02*
X157473428Y-99418857D01*
X157587714Y-99476000D01*
X157644857Y-99533142D01*
X157702000Y-99647428D01*
X157759142Y-99876000D01*
X157759142Y-100161714D01*
X157702000Y-100390285D01*
X157644857Y-100504571D01*
X157587714Y-100561714D01*
X157473428Y-100618857D01*
X157359142Y-100618857D01*
X157244857Y-100561714D01*
X157187714Y-100504571D01*
X157130571Y-100390285D01*
X157073428Y-100161714D01*
X157073428Y-99876000D01*
X157130571Y-99647428D01*
X157187714Y-99533142D01*
X157244857Y-99476000D01*
X157359142Y-99418857D01*
X158444857Y-99933142D02*
X158330571Y-99876000D01*
X158273428Y-99818857D01*
X158216285Y-99704571D01*
X158216285Y-99647428D01*
X158273428Y-99533142D01*
X158330571Y-99476000D01*
X158444857Y-99418857D01*
X158673428Y-99418857D01*
X158787714Y-99476000D01*
X158844857Y-99533142D01*
X158902000Y-99647428D01*
X158902000Y-99704571D01*
X158844857Y-99818857D01*
X158787714Y-99876000D01*
X158673428Y-99933142D01*
X158444857Y-99933142D01*
X158330571Y-99990285D01*
X158273428Y-100047428D01*
X158216285Y-100161714D01*
X158216285Y-100390285D01*
X158273428Y-100504571D01*
X158330571Y-100561714D01*
X158444857Y-100618857D01*
X158673428Y-100618857D01*
X158787714Y-100561714D01*
X158844857Y-100504571D01*
X158902000Y-100390285D01*
X158902000Y-100161714D01*
X158844857Y-100047428D01*
X158787714Y-99990285D01*
X158673428Y-99933142D01*
X137280857Y-78406571D02*
X137223714Y-78463714D01*
X137052285Y-78520857D01*
X136938000Y-78520857D01*
X136766571Y-78463714D01*
X136652285Y-78349428D01*
X136595142Y-78235142D01*
X136538000Y-78006571D01*
X136538000Y-77835142D01*
X136595142Y-77606571D01*
X136652285Y-77492285D01*
X136766571Y-77378000D01*
X136938000Y-77320857D01*
X137052285Y-77320857D01*
X137223714Y-77378000D01*
X137280857Y-77435142D01*
X137795142Y-78520857D02*
X137795142Y-77320857D01*
X138309428Y-78520857D02*
X138309428Y-77892285D01*
X138252285Y-77778000D01*
X138138000Y-77720857D01*
X137966571Y-77720857D01*
X137852285Y-77778000D01*
X137795142Y-77835142D01*
X138880857Y-78520857D02*
X138880857Y-77720857D01*
X138880857Y-77320857D02*
X138823714Y-77378000D01*
X138880857Y-77435142D01*
X138938000Y-77378000D01*
X138880857Y-77320857D01*
X138880857Y-77435142D01*
X139452285Y-78520857D02*
X139452285Y-77720857D01*
X139452285Y-77949428D02*
X139509428Y-77835142D01*
X139566571Y-77778000D01*
X139680857Y-77720857D01*
X139795142Y-77720857D01*
X140195142Y-77720857D02*
X140195142Y-78920857D01*
X140195142Y-77778000D02*
X140309428Y-77720857D01*
X140538000Y-77720857D01*
X140652285Y-77778000D01*
X140709428Y-77835142D01*
X140766571Y-77949428D01*
X140766571Y-78292285D01*
X140709428Y-78406571D01*
X140652285Y-78463714D01*
X140538000Y-78520857D01*
X140309428Y-78520857D01*
X140195142Y-78463714D01*
X141280857Y-78406571D02*
X141338000Y-78463714D01*
X141280857Y-78520857D01*
X141223714Y-78463714D01*
X141280857Y-78406571D01*
X141280857Y-78520857D01*
X141280857Y-78063714D02*
X141223714Y-77378000D01*
X141280857Y-77320857D01*
X141338000Y-77378000D01*
X141280857Y-78063714D01*
X141280857Y-77320857D01*
X163500000Y-78520857D02*
X162928571Y-78520857D01*
X162928571Y-77320857D01*
X164414285Y-78520857D02*
X164414285Y-77892285D01*
X164357142Y-77778000D01*
X164242857Y-77720857D01*
X164014285Y-77720857D01*
X163900000Y-77778000D01*
X164414285Y-78463714D02*
X164300000Y-78520857D01*
X164014285Y-78520857D01*
X163900000Y-78463714D01*
X163842857Y-78349428D01*
X163842857Y-78235142D01*
X163900000Y-78120857D01*
X164014285Y-78063714D01*
X164300000Y-78063714D01*
X164414285Y-78006571D01*
X165500000Y-78520857D02*
X165500000Y-77320857D01*
X165500000Y-78463714D02*
X165385714Y-78520857D01*
X165157142Y-78520857D01*
X165042857Y-78463714D01*
X164985714Y-78406571D01*
X164928571Y-78292285D01*
X164928571Y-77949428D01*
X164985714Y-77835142D01*
X165042857Y-77778000D01*
X165157142Y-77720857D01*
X165385714Y-77720857D01*
X165500000Y-77778000D01*
X166528571Y-78463714D02*
X166414285Y-78520857D01*
X166185714Y-78520857D01*
X166071428Y-78463714D01*
X166014285Y-78349428D01*
X166014285Y-77892285D01*
X166071428Y-77778000D01*
X166185714Y-77720857D01*
X166414285Y-77720857D01*
X166528571Y-77778000D01*
X166585714Y-77892285D01*
X166585714Y-78006571D01*
X166014285Y-78120857D01*
X167100000Y-78520857D02*
X167100000Y-77720857D01*
X167100000Y-77949428D02*
X167157142Y-77835142D01*
X167214285Y-77778000D01*
X167328571Y-77720857D01*
X167442857Y-77720857D01*
X169904000Y-78178000D02*
X170475428Y-78178000D01*
X169789714Y-78520857D02*
X170189714Y-77320857D01*
X170589714Y-78520857D01*
X170989714Y-78520857D02*
X170989714Y-77320857D01*
X171104000Y-78063714D02*
X171446857Y-78520857D01*
X171446857Y-77720857D02*
X170989714Y-78178000D01*
X171961142Y-78520857D02*
X171961142Y-77320857D01*
X172075428Y-78063714D02*
X172418285Y-78520857D01*
X172418285Y-77720857D02*
X171961142Y-78178000D01*
X173446857Y-77720857D02*
X173446857Y-78520857D01*
X172932571Y-77720857D02*
X172932571Y-78349428D01*
X172989714Y-78463714D01*
X173104000Y-78520857D01*
X173275428Y-78520857D01*
X173389714Y-78463714D01*
X173446857Y-78406571D01*
X169751714Y-90966857D02*
X169751714Y-89766857D01*
X170208857Y-89766857D01*
X170323142Y-89824000D01*
X170380285Y-89881142D01*
X170437428Y-89995428D01*
X170437428Y-90166857D01*
X170380285Y-90281142D01*
X170323142Y-90338285D01*
X170208857Y-90395428D01*
X169751714Y-90395428D01*
X171466000Y-90166857D02*
X171466000Y-90966857D01*
X170951714Y-90166857D02*
X170951714Y-90795428D01*
X171008857Y-90909714D01*
X171123142Y-90966857D01*
X171294571Y-90966857D01*
X171408857Y-90909714D01*
X171466000Y-90852571D01*
X172037428Y-90966857D02*
X172037428Y-90166857D01*
X172037428Y-90281142D02*
X172094571Y-90224000D01*
X172208857Y-90166857D01*
X172380285Y-90166857D01*
X172494571Y-90224000D01*
X172551714Y-90338285D01*
X172551714Y-90966857D01*
X172551714Y-90338285D02*
X172608857Y-90224000D01*
X172723142Y-90166857D01*
X172894571Y-90166857D01*
X173008857Y-90224000D01*
X173066000Y-90338285D01*
X173066000Y-90966857D01*
X173637428Y-90166857D02*
X173637428Y-91366857D01*
X173637428Y-90224000D02*
X173751714Y-90166857D01*
X173980285Y-90166857D01*
X174094571Y-90224000D01*
X174151714Y-90281142D01*
X174208857Y-90395428D01*
X174208857Y-90738285D01*
X174151714Y-90852571D01*
X174094571Y-90909714D01*
X173980285Y-90966857D01*
X173751714Y-90966857D01*
X173637428Y-90909714D01*
X175180285Y-90909714D02*
X175066000Y-90966857D01*
X174837428Y-90966857D01*
X174723142Y-90909714D01*
X174666000Y-90795428D01*
X174666000Y-90338285D01*
X174723142Y-90224000D01*
X174837428Y-90166857D01*
X175066000Y-90166857D01*
X175180285Y-90224000D01*
X175237428Y-90338285D01*
X175237428Y-90452571D01*
X174666000Y-90566857D01*
X138430000Y-88900000D02*
X168910000Y-88900000D01*
X168910000Y-88900000D02*
X168910000Y-106680000D01*
X168910000Y-106680000D02*
X138430000Y-106680000D01*
X138430000Y-106680000D02*
X138430000Y-88900000D01*
X154940000Y-90170000D02*
X161925000Y-90170000D01*
X161925000Y-90170000D02*
X161925000Y-96520000D01*
X161925000Y-96520000D02*
X154940000Y-96520000D01*
X154940000Y-96520000D02*
X154940000Y-90170000D01*
G36*
X159385000Y-89535000D02*
X160655000Y-89535000D01*
X160655000Y-90170000D01*
X159385000Y-90170000D01*
X159385000Y-89535000D01*
G37*
X159385000Y-89535000D02*
X160655000Y-89535000D01*
X160655000Y-90170000D01*
X159385000Y-90170000D01*
X159385000Y-89535000D01*
D11*
X97070000Y-82320000D02*
X97070000Y-105640000D01*
X103970000Y-79780000D02*
X129400000Y-79780000D01*
X97070000Y-105640000D02*
X129400000Y-105640000D01*
X131530000Y-103520000D02*
X131530000Y-81910000D01*
D10*
G36*
X123825000Y-78740000D02*
X122555000Y-78740000D01*
X123190000Y-79375000D01*
X123825000Y-78740000D01*
G37*
X123825000Y-78740000D02*
X122555000Y-78740000D01*
X123190000Y-79375000D01*
X123825000Y-78740000D01*
D11*
X103970000Y-79780000D02*
X103970000Y-82320000D01*
X103970000Y-82320000D02*
X97070000Y-82320000D01*
X129400000Y-79780000D02*
G75*
G02X131530000Y-81910000I0J-2130000D01*
G01*
X131530000Y-103510000D02*
G75*
G02X129400000Y-105640000I-2130000J0D01*
G01*
X143490000Y-97790000D02*
X143490000Y-99740000D01*
X143490000Y-97790000D02*
X143490000Y-95840000D01*
X148610000Y-97790000D02*
X148610000Y-99740000D01*
X148610000Y-97790000D02*
X148610000Y-94340000D01*
X120976000Y-95780000D02*
X120976000Y-92180000D01*
X120964478Y-95818478D02*
G75*
G02X116526000Y-93980000I-1838478J1838478D01*
G01*
X120964478Y-92141522D02*
G75*
G03X116526000Y-93980000I-1838478J-1838478D01*
G01*
X121820000Y-97660000D02*
X121820000Y-90220000D01*
X124560000Y-97660000D02*
X124560000Y-90220000D01*
X121820000Y-97660000D02*
X124560000Y-97660000D01*
X121820000Y-90220000D02*
X124560000Y-90220000D01*
X112930000Y-90300000D02*
X115670000Y-90300000D01*
X112930000Y-97740000D02*
X115670000Y-97740000D01*
X115670000Y-97740000D02*
X115670000Y-90300000D01*
X112930000Y-97740000D02*
X112930000Y-90300000D01*
X143570000Y-85150000D02*
X143570000Y-79950000D01*
X138430000Y-85150000D02*
X143570000Y-85150000D01*
X135830000Y-79950000D02*
X143570000Y-79950000D01*
X138430000Y-85150000D02*
X138430000Y-82550000D01*
X138430000Y-82550000D02*
X135830000Y-82550000D01*
X135830000Y-82550000D02*
X135830000Y-79950000D01*
X137160000Y-85150000D02*
X135830000Y-85150000D01*
X135830000Y-85150000D02*
X135830000Y-83820000D01*
X170120000Y-100390000D02*
X172780000Y-100390000D01*
X170120000Y-95250000D02*
X170120000Y-100390000D01*
X172780000Y-95250000D02*
X172780000Y-100390000D01*
X170120000Y-95250000D02*
X172780000Y-95250000D01*
X170120000Y-93980000D02*
X170120000Y-92650000D01*
X170120000Y-92650000D02*
X171450000Y-92650000D01*
X133290000Y-105470000D02*
X135950000Y-105470000D01*
X133290000Y-102870000D02*
X133290000Y-105470000D01*
X135950000Y-102870000D02*
X135950000Y-105470000D01*
X133290000Y-102870000D02*
X135950000Y-102870000D01*
X133290000Y-101600000D02*
X133290000Y-100270000D01*
X133290000Y-100270000D02*
X134620000Y-100270000D01*
X111030000Y-99290000D02*
X111030000Y-98960000D01*
X111030000Y-98960000D02*
X117570000Y-98960000D01*
X117570000Y-98960000D02*
X117570000Y-99290000D01*
X111030000Y-101370000D02*
X111030000Y-101700000D01*
X111030000Y-101700000D02*
X117570000Y-101700000D01*
X117570000Y-101700000D02*
X117570000Y-101370000D01*
X116110000Y-84990000D02*
X116110000Y-85320000D01*
X122650000Y-84990000D02*
X116110000Y-84990000D01*
X122650000Y-85320000D02*
X122650000Y-84990000D01*
X116110000Y-87730000D02*
X116110000Y-87400000D01*
X122650000Y-87730000D02*
X116110000Y-87730000D01*
X122650000Y-87400000D02*
X122650000Y-87730000D01*
X156940000Y-82320000D02*
X156940000Y-82650000D01*
X156940000Y-82650000D02*
X150400000Y-82650000D01*
X150400000Y-82650000D02*
X150400000Y-82320000D01*
X156940000Y-80240000D02*
X156940000Y-79910000D01*
X156940000Y-79910000D02*
X150400000Y-79910000D01*
X150400000Y-79910000D02*
X150400000Y-80240000D01*
X105950000Y-84050000D02*
X105950000Y-83720000D01*
X105950000Y-83720000D02*
X112490000Y-83720000D01*
X112490000Y-83720000D02*
X112490000Y-84050000D01*
X105950000Y-86130000D02*
X105950000Y-86460000D01*
X105950000Y-86460000D02*
X112490000Y-86460000D01*
X112490000Y-86460000D02*
X112490000Y-86130000D01*
X156940000Y-86460000D02*
X156940000Y-86130000D01*
X150400000Y-86460000D02*
X156940000Y-86460000D01*
X150400000Y-86130000D02*
X150400000Y-86460000D01*
X156940000Y-83720000D02*
X156940000Y-84050000D01*
X150400000Y-83720000D02*
X156940000Y-83720000D01*
X150400000Y-84050000D02*
X150400000Y-83720000D01*
X165300000Y-95070000D02*
X162360000Y-95070000D01*
X162360000Y-95070000D02*
X162360000Y-100510000D01*
X162360000Y-100510000D02*
X165300000Y-100510000D01*
X165300000Y-100510000D02*
X165300000Y-95070000D01*
X163830000Y-92580000D02*
X163830000Y-95070000D01*
X163830000Y-103000000D02*
X163830000Y-100510000D01*
X165300000Y-95970000D02*
X162360000Y-95970000D01*
X165300000Y-96090000D02*
X162360000Y-96090000D01*
X165300000Y-95850000D02*
X162360000Y-95850000D01*
X172780000Y-79950000D02*
X170120000Y-79950000D01*
X172780000Y-85090000D02*
X172780000Y-79950000D01*
X170120000Y-85090000D02*
X170120000Y-79950000D01*
X172780000Y-85090000D02*
X170120000Y-85090000D01*
X172780000Y-86360000D02*
X172780000Y-87690000D01*
X172780000Y-87690000D02*
X171450000Y-87690000D01*
X166430000Y-87690000D02*
X165100000Y-87690000D01*
X166430000Y-86360000D02*
X166430000Y-87690000D01*
X166430000Y-85090000D02*
X163770000Y-85090000D01*
X163770000Y-85090000D02*
X163770000Y-79950000D01*
X166430000Y-85090000D02*
X166430000Y-79950000D01*
X166430000Y-79950000D02*
X163770000Y-79950000D01*
X135950000Y-89856000D02*
X133290000Y-89856000D01*
X135950000Y-92456000D02*
X135950000Y-89856000D01*
X133290000Y-92456000D02*
X133290000Y-89856000D01*
X135950000Y-92456000D02*
X133290000Y-92456000D01*
X135950000Y-93726000D02*
X135950000Y-95056000D01*
X135950000Y-95056000D02*
X134620000Y-95056000D01*
X102420000Y-98240000D02*
X105470000Y-98240000D01*
X110940000Y-98240000D02*
X107890000Y-98240000D01*
X110940000Y-90784437D02*
X110940000Y-98240000D01*
X102420000Y-90784437D02*
X102420000Y-98240000D01*
X103484437Y-89720000D02*
X105470000Y-89720000D01*
X109875563Y-89720000D02*
X107890000Y-89720000D01*
X109875563Y-89720000D02*
X110940000Y-90784437D01*
X103484437Y-89720000D02*
X102420000Y-90784437D01*
X108890000Y-88480000D02*
X108890000Y-89480000D01*
X109390000Y-88980000D02*
X108390000Y-88980000D01*
D10*
X152400095Y-97496380D02*
X152400095Y-98305904D01*
X152447714Y-98401142D01*
X152495333Y-98448761D01*
X152590571Y-98496380D01*
X152781047Y-98496380D01*
X152876285Y-98448761D01*
X152923904Y-98401142D01*
X152971523Y-98305904D01*
X152971523Y-97496380D01*
X153971523Y-98496380D02*
X153400095Y-98496380D01*
X153685809Y-98496380D02*
X153685809Y-97496380D01*
X153590571Y-97639238D01*
X153495333Y-97734476D01*
X153400095Y-97782095D01*
X103378095Y-101052380D02*
X103378095Y-101861904D01*
X103425714Y-101957142D01*
X103473333Y-102004761D01*
X103568571Y-102052380D01*
X103759047Y-102052380D01*
X103854285Y-102004761D01*
X103901904Y-101957142D01*
X103949523Y-101861904D01*
X103949523Y-101052380D01*
X104330476Y-101052380D02*
X104949523Y-101052380D01*
X104616190Y-101433333D01*
X104759047Y-101433333D01*
X104854285Y-101480952D01*
X104901904Y-101528571D01*
X104949523Y-101623809D01*
X104949523Y-101861904D01*
X104901904Y-101957142D01*
X104854285Y-102004761D01*
X104759047Y-102052380D01*
X104473333Y-102052380D01*
X104378095Y-102004761D01*
X104330476Y-101957142D01*
X145319761Y-93257619D02*
X145224523Y-93210000D01*
X145129285Y-93114761D01*
X144986428Y-92971904D01*
X144891190Y-92924285D01*
X144795952Y-92924285D01*
X144843571Y-93162380D02*
X144748333Y-93114761D01*
X144653095Y-93019523D01*
X144605476Y-92829047D01*
X144605476Y-92495714D01*
X144653095Y-92305238D01*
X144748333Y-92210000D01*
X144843571Y-92162380D01*
X145034047Y-92162380D01*
X145129285Y-92210000D01*
X145224523Y-92305238D01*
X145272142Y-92495714D01*
X145272142Y-92829047D01*
X145224523Y-93019523D01*
X145129285Y-93114761D01*
X145034047Y-93162380D01*
X144843571Y-93162380D01*
X146224523Y-93162380D02*
X145653095Y-93162380D01*
X145938809Y-93162380D02*
X145938809Y-92162380D01*
X145843571Y-92305238D01*
X145748333Y-92400476D01*
X145653095Y-92448095D01*
X118364095Y-97242380D02*
X118364095Y-98051904D01*
X118411714Y-98147142D01*
X118459333Y-98194761D01*
X118554571Y-98242380D01*
X118745047Y-98242380D01*
X118840285Y-98194761D01*
X118887904Y-98147142D01*
X118935523Y-98051904D01*
X118935523Y-97242380D01*
X119364095Y-97337619D02*
X119411714Y-97290000D01*
X119506952Y-97242380D01*
X119745047Y-97242380D01*
X119840285Y-97290000D01*
X119887904Y-97337619D01*
X119935523Y-97432857D01*
X119935523Y-97528095D01*
X119887904Y-97670952D01*
X119316476Y-98242380D01*
X119935523Y-98242380D01*
X123023333Y-89257142D02*
X122975714Y-89304761D01*
X122832857Y-89352380D01*
X122737619Y-89352380D01*
X122594761Y-89304761D01*
X122499523Y-89209523D01*
X122451904Y-89114285D01*
X122404285Y-88923809D01*
X122404285Y-88780952D01*
X122451904Y-88590476D01*
X122499523Y-88495238D01*
X122594761Y-88400000D01*
X122737619Y-88352380D01*
X122832857Y-88352380D01*
X122975714Y-88400000D01*
X123023333Y-88447619D01*
X123975714Y-89352380D02*
X123404285Y-89352380D01*
X123690000Y-89352380D02*
X123690000Y-88352380D01*
X123594761Y-88495238D01*
X123499523Y-88590476D01*
X123404285Y-88638095D01*
X113879333Y-89511142D02*
X113831714Y-89558761D01*
X113688857Y-89606380D01*
X113593619Y-89606380D01*
X113450761Y-89558761D01*
X113355523Y-89463523D01*
X113307904Y-89368285D01*
X113260285Y-89177809D01*
X113260285Y-89034952D01*
X113307904Y-88844476D01*
X113355523Y-88749238D01*
X113450761Y-88654000D01*
X113593619Y-88606380D01*
X113688857Y-88606380D01*
X113831714Y-88654000D01*
X113879333Y-88701619D01*
X114212666Y-88606380D02*
X114831714Y-88606380D01*
X114498380Y-88987333D01*
X114641238Y-88987333D01*
X114736476Y-89034952D01*
X114784095Y-89082571D01*
X114831714Y-89177809D01*
X114831714Y-89415904D01*
X114784095Y-89511142D01*
X114736476Y-89558761D01*
X114641238Y-89606380D01*
X114355523Y-89606380D01*
X114260285Y-89558761D01*
X114212666Y-89511142D01*
X133588166Y-81367380D02*
X133588166Y-82081666D01*
X133540547Y-82224523D01*
X133445309Y-82319761D01*
X133302452Y-82367380D01*
X133207214Y-82367380D01*
X133969119Y-81367380D02*
X134588166Y-81367380D01*
X134254833Y-81748333D01*
X134397690Y-81748333D01*
X134492928Y-81795952D01*
X134540547Y-81843571D01*
X134588166Y-81938809D01*
X134588166Y-82176904D01*
X134540547Y-82272142D01*
X134492928Y-82319761D01*
X134397690Y-82367380D01*
X134111976Y-82367380D01*
X134016738Y-82319761D01*
X133969119Y-82272142D01*
X171116666Y-101306380D02*
X171116666Y-102020666D01*
X171069047Y-102163523D01*
X170973809Y-102258761D01*
X170830952Y-102306380D01*
X170735714Y-102306380D01*
X171545238Y-101401619D02*
X171592857Y-101354000D01*
X171688095Y-101306380D01*
X171926190Y-101306380D01*
X172021428Y-101354000D01*
X172069047Y-101401619D01*
X172116666Y-101496857D01*
X172116666Y-101592095D01*
X172069047Y-101734952D01*
X171497619Y-102306380D01*
X172116666Y-102306380D01*
X133786666Y-98512380D02*
X133786666Y-99226666D01*
X133739047Y-99369523D01*
X133643809Y-99464761D01*
X133500952Y-99512380D01*
X133405714Y-99512380D01*
X134262857Y-99512380D02*
X134262857Y-98512380D01*
X134643809Y-98512380D01*
X134739047Y-98560000D01*
X134786666Y-98607619D01*
X134834285Y-98702857D01*
X134834285Y-98845714D01*
X134786666Y-98940952D01*
X134739047Y-98988571D01*
X134643809Y-99036190D01*
X134262857Y-99036190D01*
X135786666Y-99512380D02*
X135215238Y-99512380D01*
X135500952Y-99512380D02*
X135500952Y-98512380D01*
X135405714Y-98655238D01*
X135310476Y-98750476D01*
X135215238Y-98798095D01*
X120483333Y-101798380D02*
X120150000Y-101322190D01*
X119911904Y-101798380D02*
X119911904Y-100798380D01*
X120292857Y-100798380D01*
X120388095Y-100846000D01*
X120435714Y-100893619D01*
X120483333Y-100988857D01*
X120483333Y-101131714D01*
X120435714Y-101226952D01*
X120388095Y-101274571D01*
X120292857Y-101322190D01*
X119911904Y-101322190D01*
X121435714Y-101798380D02*
X120864285Y-101798380D01*
X121150000Y-101798380D02*
X121150000Y-100798380D01*
X121054761Y-100941238D01*
X120959523Y-101036476D01*
X120864285Y-101084095D01*
X119213333Y-84272380D02*
X118880000Y-83796190D01*
X118641904Y-84272380D02*
X118641904Y-83272380D01*
X119022857Y-83272380D01*
X119118095Y-83320000D01*
X119165714Y-83367619D01*
X119213333Y-83462857D01*
X119213333Y-83605714D01*
X119165714Y-83700952D01*
X119118095Y-83748571D01*
X119022857Y-83796190D01*
X118641904Y-83796190D01*
X119594285Y-83367619D02*
X119641904Y-83320000D01*
X119737142Y-83272380D01*
X119975238Y-83272380D01*
X120070476Y-83320000D01*
X120118095Y-83367619D01*
X120165714Y-83462857D01*
X120165714Y-83558095D01*
X120118095Y-83700952D01*
X119546666Y-84272380D01*
X120165714Y-84272380D01*
X159599333Y-82240380D02*
X159266000Y-81764190D01*
X159027904Y-82240380D02*
X159027904Y-81240380D01*
X159408857Y-81240380D01*
X159504095Y-81288000D01*
X159551714Y-81335619D01*
X159599333Y-81430857D01*
X159599333Y-81573714D01*
X159551714Y-81668952D01*
X159504095Y-81716571D01*
X159408857Y-81764190D01*
X159027904Y-81764190D01*
X159932666Y-81240380D02*
X160551714Y-81240380D01*
X160218380Y-81621333D01*
X160361238Y-81621333D01*
X160456476Y-81668952D01*
X160504095Y-81716571D01*
X160551714Y-81811809D01*
X160551714Y-82049904D01*
X160504095Y-82145142D01*
X160456476Y-82192761D01*
X160361238Y-82240380D01*
X160075523Y-82240380D01*
X159980285Y-82192761D01*
X159932666Y-82145142D01*
X109307333Y-83002380D02*
X108974000Y-82526190D01*
X108735904Y-83002380D02*
X108735904Y-82002380D01*
X109116857Y-82002380D01*
X109212095Y-82050000D01*
X109259714Y-82097619D01*
X109307333Y-82192857D01*
X109307333Y-82335714D01*
X109259714Y-82430952D01*
X109212095Y-82478571D01*
X109116857Y-82526190D01*
X108735904Y-82526190D01*
X110164476Y-82335714D02*
X110164476Y-83002380D01*
X109926380Y-81954761D02*
X109688285Y-82669047D01*
X110307333Y-82669047D01*
X159599333Y-86304380D02*
X159266000Y-85828190D01*
X159027904Y-86304380D02*
X159027904Y-85304380D01*
X159408857Y-85304380D01*
X159504095Y-85352000D01*
X159551714Y-85399619D01*
X159599333Y-85494857D01*
X159599333Y-85637714D01*
X159551714Y-85732952D01*
X159504095Y-85780571D01*
X159408857Y-85828190D01*
X159027904Y-85828190D01*
X160504095Y-85304380D02*
X160027904Y-85304380D01*
X159980285Y-85780571D01*
X160027904Y-85732952D01*
X160123142Y-85685333D01*
X160361238Y-85685333D01*
X160456476Y-85732952D01*
X160504095Y-85780571D01*
X160551714Y-85875809D01*
X160551714Y-86113904D01*
X160504095Y-86209142D01*
X160456476Y-86256761D01*
X160361238Y-86304380D01*
X160123142Y-86304380D01*
X160027904Y-86256761D01*
X159980285Y-86209142D01*
X165885904Y-99258380D02*
X165885904Y-98258380D01*
X166124000Y-98258380D01*
X166266857Y-98306000D01*
X166362095Y-98401238D01*
X166409714Y-98496476D01*
X166457333Y-98686952D01*
X166457333Y-98829809D01*
X166409714Y-99020285D01*
X166362095Y-99115523D01*
X166266857Y-99210761D01*
X166124000Y-99258380D01*
X165885904Y-99258380D01*
X167409714Y-99258380D02*
X166838285Y-99258380D01*
X167124000Y-99258380D02*
X167124000Y-98258380D01*
X167028761Y-98401238D01*
X166933523Y-98496476D01*
X166838285Y-98544095D01*
X166182380Y-91701904D02*
X165182380Y-91701904D01*
X166182380Y-91130476D02*
X165610952Y-91559047D01*
X165182380Y-91130476D02*
X165753809Y-91701904D01*
X174164666Y-86828380D02*
X174164666Y-87542666D01*
X174117047Y-87685523D01*
X174021809Y-87780761D01*
X173878952Y-87828380D01*
X173783714Y-87828380D01*
X175069428Y-87161714D02*
X175069428Y-87828380D01*
X174831333Y-86780761D02*
X174593238Y-87495047D01*
X175212285Y-87495047D01*
X167814666Y-86574380D02*
X167814666Y-87288666D01*
X167767047Y-87431523D01*
X167671809Y-87526761D01*
X167528952Y-87574380D01*
X167433714Y-87574380D01*
X168719428Y-86574380D02*
X168528952Y-86574380D01*
X168433714Y-86622000D01*
X168386095Y-86669619D01*
X168290857Y-86812476D01*
X168243238Y-87002952D01*
X168243238Y-87383904D01*
X168290857Y-87479142D01*
X168338476Y-87526761D01*
X168433714Y-87574380D01*
X168624190Y-87574380D01*
X168719428Y-87526761D01*
X168767047Y-87479142D01*
X168814666Y-87383904D01*
X168814666Y-87145809D01*
X168767047Y-87050571D01*
X168719428Y-87002952D01*
X168624190Y-86955333D01*
X168433714Y-86955333D01*
X168338476Y-87002952D01*
X168290857Y-87050571D01*
X168243238Y-87145809D01*
X134032666Y-87336380D02*
X134032666Y-88050666D01*
X133985047Y-88193523D01*
X133889809Y-88288761D01*
X133746952Y-88336380D01*
X133651714Y-88336380D01*
X134651714Y-87764952D02*
X134556476Y-87717333D01*
X134508857Y-87669714D01*
X134461238Y-87574476D01*
X134461238Y-87526857D01*
X134508857Y-87431619D01*
X134556476Y-87384000D01*
X134651714Y-87336380D01*
X134842190Y-87336380D01*
X134937428Y-87384000D01*
X134985047Y-87431619D01*
X135032666Y-87526857D01*
X135032666Y-87574476D01*
X134985047Y-87669714D01*
X134937428Y-87717333D01*
X134842190Y-87764952D01*
X134651714Y-87764952D01*
X134556476Y-87812571D01*
X134508857Y-87860190D01*
X134461238Y-87955428D01*
X134461238Y-88145904D01*
X134508857Y-88241142D01*
X134556476Y-88288761D01*
X134651714Y-88336380D01*
X134842190Y-88336380D01*
X134937428Y-88288761D01*
X134985047Y-88241142D01*
X135032666Y-88145904D01*
X135032666Y-87955428D01*
X134985047Y-87860190D01*
X134937428Y-87812571D01*
X134842190Y-87764952D01*
X103401833Y-88622142D02*
X103354214Y-88669761D01*
X103211357Y-88717380D01*
X103116119Y-88717380D01*
X102973261Y-88669761D01*
X102878023Y-88574523D01*
X102830404Y-88479285D01*
X102782785Y-88288809D01*
X102782785Y-88145952D01*
X102830404Y-87955476D01*
X102878023Y-87860238D01*
X102973261Y-87765000D01*
X103116119Y-87717380D01*
X103211357Y-87717380D01*
X103354214Y-87765000D01*
X103401833Y-87812619D01*
X103782785Y-87812619D02*
X103830404Y-87765000D01*
X103925642Y-87717380D01*
X104163738Y-87717380D01*
X104258976Y-87765000D01*
X104306595Y-87812619D01*
X104354214Y-87907857D01*
X104354214Y-88003095D01*
X104306595Y-88145952D01*
X103735166Y-88717380D01*
X104354214Y-88717380D01*
M02*
