M48
;DRILL file {KiCad 5.0.2-bee76a0~70~ubuntu18.04.1} date Mi 22 Apr 2020 00:36:14 CEST
;FORMAT={-:-/ absolute / metric / decimal}
FMAT,2
METRIC,TZ
T1C0.600
T2C0.750
T3C0.800
T4C0.900
T5C1.000
T6C1.200
%
G90
G05
T1
X136.144Y-94.488
T2
X119.126Y-92.71
X119.126Y-93.98
X119.126Y-95.25
T3
X146.685Y-92.202
X149.86Y-85.09
X157.48Y-85.09
X110.49Y-100.33
X118.11Y-100.33
X149.86Y-81.28
X157.48Y-81.28
X114.3Y-91.52
X114.3Y-96.52
X115.57Y-86.36
X123.19Y-86.36
X105.41Y-85.09
X113.03Y-85.09
X123.19Y-91.44
X123.19Y-96.44
T4
X160.02Y-91.44
X160.02Y-104.14
T5
X111.76Y-92.71
X111.76Y-95.377
X137.16Y-81.28
X137.16Y-83.82
X139.7Y-81.28
X139.7Y-83.82
X142.24Y-81.28
X142.24Y-83.82
X133.35Y-101.6
X133.35Y-104.14
X105.41Y-81.28
X105.41Y-104.14
X107.95Y-81.28
X107.95Y-104.14
X110.49Y-81.28
X110.49Y-104.14
X113.03Y-81.28
X113.03Y-104.14
X115.57Y-81.28
X115.57Y-104.14
X118.11Y-81.28
X118.11Y-104.14
X120.65Y-81.28
X120.65Y-104.14
X123.19Y-81.28
X123.19Y-104.14
X133.35Y-91.186
X133.35Y-93.726
X171.45Y-93.98
X171.45Y-96.52
X171.45Y-99.06
X171.45Y-81.28
X171.45Y-83.82
X171.45Y-86.36
X165.1Y-81.28
X165.1Y-83.82
X165.1Y-86.36
T6
X138.43Y-90.17
X138.43Y-105.41
X163.83Y-90.17
X163.83Y-105.41
T0
M30
