EESchema Schematic File Version 4
LIBS:PflanzenClient_D1Mini_LiFePo4-cache
EELAYER 26 0
EELAYER END
$Descr A4 11693 8268
encoding utf-8
Sheet 1 1
Title "hpWeMos D1 mini - PlanzenClient LiFePo4"
Date "2019-08-19"
Rev "01.0"
Comp ""
Comment1 ""
Comment2 ""
Comment3 ""
Comment4 ""
$EndDescr
$Comp
L wemos_mini:WeMos_D1_mini U3
U 1 1 5D7030BD
P 5940 4040
F 0 "U3" H 5940 5039 50  0000 C CNN
F 1 "WeMos_D1_mini" H 5940 4932 59  0000 C CNN
F 2 "Module:WEMOS_D1_mini_light" H 5940 2890 50  0001 C CNN
F 3 "https://wiki.wemos.cc/products:d1:d1_mini#documentation" H 4090 2890 50  0001 C CNN
	1    5940 4040
	1    0    0    -1  
$EndComp
$Comp
L 123:MT3608 U1
U 1 1 5D7047AA
P 3260 4800
F 0 "U1" H 3260 5267 50  0000 C CNN
F 1 "MT3608" H 3260 5176 59  0000 C CNN
F 2 "HardyP:MT3608" H 2260 4550 50  0001 C CNN
F 3 "" H 3110 5050 50  0001 C CNN
	1    3260 4800
	-1   0    0    -1  
$EndComp
$Comp
L 123:IRF7413Z Q1
U 1 1 5D705D38
P 4130 5690
F 0 "Q1" H 4336 5743 50  0000 L CNN
F 1 "IRF7413Z" H 4336 5645 59  0000 L CNN
F 2 "Package_SO:SOIC-8_3.9x4.9mm_P1.27mm" H 4330 5590 50  0001 L CNN
F 3 "http://www.irf.com/product-info/datasheets/data/irf8721pbf-1.pdf" H 4030 5690 50  0001 L CNN
	1    4130 5690
	-1   0    0    -1  
$EndComp
$Comp
L 123:DS18S20 U2
U 1 1 5D707AFD
P 8400 2280
F 0 "U2" H 8171 2326 50  0000 R CNN
F 1 "DS18S20" H 8171 2235 59  0000 R CNN
F 2 "Package_TO_SOT_THT:TO-92_Inline" H 7400 2030 50  0001 C CNN
F 3 "http://datasheets.maximintegrated.com/en/ds/DS18S20.pdf" H 8250 2530 50  0001 C CNN
	1    8400 2280
	-1   0    0    -1  
$EndComp
Wire Wire Line
	6440 3790 7410 3790
Wire Wire Line
	7410 2280 8100 2280
$Comp
L 123:R R1
U 1 1 5D707E35
P 7410 1580
F 0 "R1" H 7480 1626 50  0000 L CNN
F 1 "5k6" H 7480 1535 50  0000 L CNN
F 2 "Resistor_THT:R_Axial_DIN0207_L6.3mm_D2.5mm_P7.62mm_Horizontal" V 7340 1580 50  0001 C CNN
F 3 "~" H 7410 1580 50  0001 C CNN
	1    7410 1580
	1    0    0    -1  
$EndComp
Wire Wire Line
	7410 3790 7410 2280
Wire Wire Line
	7410 1730 7410 2280
Connection ~ 7410 2280
$Comp
L 123:VCC #PWR0102
U 1 1 5D705E99
P 9250 1170
F 0 "#PWR0102" H 9250 1435 50  0001 C CNN
F 1 "VCC" H 9250 1344 50  0000 C CNN
F 2 "" H 9250 1170 50  0001 C CNN
F 3 "" H 9250 1170 50  0001 C CNN
	1    9250 1170
	1    0    0    -1  
$EndComp
$Comp
L 123:GND #PWR0103
U 1 1 5D705FDD
P 8400 3130
F 0 "#PWR0103" H 8400 2976 50  0001 C CNN
F 1 "GND" H 8400 2975 50  0000 C CNN
F 2 "" H 8400 3130 50  0001 C CNN
F 3 "" H 8400 3130 50  0001 C CNN
	1    8400 3130
	1    0    0    -1  
$EndComp
Wire Wire Line
	8400 2580 8400 2810
$Comp
L 123:R R5
U 1 1 5D70F14E
P 4860 6080
F 0 "R5" H 4930 6126 50  0000 L CNN
F 1 "270k" H 4930 6035 50  0000 L CNN
F 2 "Resistor_THT:R_Axial_DIN0207_L6.3mm_D2.5mm_P7.62mm_Horizontal" V 4790 6080 50  0001 C CNN
F 3 "~" H 4860 6080 50  0001 C CNN
	1    4860 6080
	1    0    0    -1  
$EndComp
$Comp
L 123:GND #PWR0101
U 1 1 5D70F2FA
P 4860 7010
F 0 "#PWR0101" H 4860 6856 50  0001 C CNN
F 1 "GND" H 4860 6901 50  0000 C TNN
F 2 "" H 4860 7010 50  0001 C CNN
F 3 "" H 4860 7010 50  0001 C CNN
	1    4860 7010
	1    0    0    -1  
$EndComp
Wire Wire Line
	4860 6230 4860 6520
Wire Wire Line
	3660 4950 4030 4950
Wire Wire Line
	4030 4950 4030 5490
Wire Wire Line
	4330 5690 4860 5690
Wire Wire Line
	4860 5690 4860 5930
$Comp
L 123:VCC #PWR0104
U 1 1 5D710018
P 4030 4010
F 0 "#PWR0104" H 4030 4275 50  0001 C CNN
F 1 "VCC" H 4030 4184 50  0000 C CNN
F 2 "" H 4030 4010 50  0001 C CNN
F 3 "" H 4030 4010 50  0001 C CNN
	1    4030 4010
	1    0    0    -1  
$EndComp
Wire Wire Line
	4030 4010 4030 4650
Wire Wire Line
	4030 4650 3660 4650
$Comp
L 123:D D1
U 1 1 5D710205
P 2520 4790
F 0 "D1" V 2474 4869 50  0000 L CNN
F 1 "1N4001" V 2565 4869 50  0000 L CNN
F 2 "Diode_THT:D_A-405_P12.70mm_Horizontal" H 2520 4790 50  0001 C CNN
F 3 "~" H 2520 4790 50  0001 C CNN
	1    2520 4790
	0    1    1    0   
$EndComp
$Comp
L 123:Motor_DC M1
U 1 1 5D710BCD
P 1070 4840
F 0 "M1" H 1228 4836 50  0000 L CNN
F 1 "Pumpe" H 1228 4745 50  0000 L CNN
F 2 "" H 1070 4750 50  0001 C CNN
F 3 "~" H 1070 4750 50  0001 C CNN
	1    1070 4840
	1    0    0    -1  
$EndComp
$Comp
L 123:Conn_01x03_Female J1
U 1 1 5D722312
P 1990 4590
F 0 "J1" H 2018 4570 50  0001 C TNN
F 1 " " H 2017 4525 50  0001 L CNN
F 2 "" H 1990 4590 50  0001 C CNN
F 3 "~" H 1990 4590 50  0001 C CNN
	1    1990 4590
	1    0    0    -1  
$EndComp
$Comp
L 123:Conn_01x03_Male J2
U 1 1 5D72235C
P 2030 4580
F 0 "J2" H 2136 4767 50  0000 C CNN
F 1 " " H 2136 4767 50  0001 C CNN
F 2 "Connector_PinHeader_2.54mm:PinHeader_1x03_P2.54mm_Vertical" H 2030 4580 50  0001 C CNN
F 3 "~" H 2030 4580 50  0001 C CNN
	1    2030 4580
	1    0    0    -1  
$EndComp
Wire Wire Line
	2520 4640 2520 4580
Wire Wire Line
	2520 4580 2230 4580
Wire Wire Line
	2860 4650 2800 4650
Wire Wire Line
	2800 4650 2800 4580
Wire Wire Line
	2800 4580 2520 4580
Connection ~ 2520 4580
Wire Wire Line
	2860 4950 2800 4950
Wire Wire Line
	2800 4950 2800 5010
Wire Wire Line
	2800 5010 2520 5010
Wire Wire Line
	2520 5010 2520 4940
Wire Wire Line
	2520 5010 2300 5010
Wire Wire Line
	2300 5010 2300 4680
Wire Wire Line
	2300 4680 2230 4680
Connection ~ 2520 5010
Wire Wire Line
	2230 4480 2300 4480
Wire Wire Line
	2300 4480 2300 4680
Connection ~ 2300 4680
Wire Wire Line
	1790 4690 1690 4690
Wire Wire Line
	1690 4690 1690 5290
Wire Wire Line
	1690 5290 1070 5290
Wire Wire Line
	1070 5290 1070 5140
Wire Wire Line
	1790 4590 1070 4590
Wire Wire Line
	1070 4590 1070 4640
$Comp
L 123:AVR-ISP J3
U 1 1 5D7281D3
P 3300 2620
F 0 "J3" H 3300 3051 50  0000 C CNN
F 1 "Chirp!" H 3300 2953 59  0000 C CNN
F 2 "Connector_PinHeader_2.54mm:PinHeader_2x03_P2.54mm_Vertical" H 3300 2620 50  0001 C CNN
F 3 "~" H 3300 2620 50  0001 C CNN
	1    3300 2620
	1    0    0    -1  
$EndComp
$Comp
L 123:GND #PWR0105
U 1 1 5D728343
P 4010 3100
F 0 "#PWR0105" H 4010 2946 50  0001 C CNN
F 1 "GND" H 4010 2945 50  0000 C CNN
F 2 "" H 4010 3100 50  0001 C CNN
F 3 "" H 4010 3100 50  0001 C CNN
	1    4010 3100
	1    0    0    -1  
$EndComp
Wire Wire Line
	3700 2720 4010 2720
Wire Wire Line
	4010 2720 4010 3100
Wire Wire Line
	5440 4390 4860 4390
Wire Wire Line
	4860 4390 4860 5690
Connection ~ 4860 5690
Wire Wire Line
	5440 4240 4280 4240
Wire Wire Line
	4280 4240 4280 2620
Wire Wire Line
	4280 2620 3700 2620
Wire Wire Line
	4010 2520 3700 2520
Wire Wire Line
	5440 4090 4440 4090
Wire Wire Line
	4440 4090 4440 2100
Wire Wire Line
	4440 2100 2540 2100
Wire Wire Line
	2540 2100 2540 2520
Wire Wire Line
	2540 2520 2900 2520
$Comp
L 123:R R3
U 1 1 5D72CD06
P 2540 1580
F 0 "R3" H 2610 1626 50  0000 L CNN
F 1 "5k6" H 2610 1535 50  0000 L CNN
F 2 "Resistor_THT:R_Axial_DIN0207_L6.3mm_D2.5mm_P7.62mm_Horizontal" V 2470 1580 50  0001 C CNN
F 3 "~" H 2540 1580 50  0001 C CNN
	1    2540 1580
	1    0    0    -1  
$EndComp
Wire Wire Line
	2540 2100 2540 1730
Connection ~ 2540 2100
Wire Wire Line
	5440 3940 4590 3940
Wire Wire Line
	4590 3940 4590 1990
Wire Wire Line
	4590 1990 2220 1990
Wire Wire Line
	2220 1990 2220 2620
Wire Wire Line
	2220 2620 2900 2620
$Comp
L 123:R R2
U 1 1 5D72F782
P 2220 1580
F 0 "R2" H 2290 1626 50  0000 L CNN
F 1 "5k6" H 2290 1535 50  0000 L CNN
F 2 "Resistor_THT:R_Axial_DIN0207_L6.3mm_D2.5mm_P7.62mm_Horizontal" V 2150 1580 50  0001 C CNN
F 3 "~" H 2220 1580 50  0001 C CNN
	1    2220 1580
	1    0    0    -1  
$EndComp
Wire Wire Line
	2220 1730 2220 1990
Connection ~ 2220 1990
$Comp
L 123:Jumper JP1
U 1 1 5D731952
P 3350 1870
F 0 "JP1" H 3350 2043 50  0000 C CNN
F 1 " " H 3350 2043 50  0001 C CNN
F 2 "Connector_PinHeader_2.54mm:PinHeader_1x02_P2.54mm_Vertical" H 3350 1870 50  0001 C CNN
F 3 "~" H 3350 1870 50  0001 C CNN
	1    3350 1870
	1    0    0    -1  
$EndComp
Wire Wire Line
	2900 2720 2830 2720
Wire Wire Line
	2830 2720 2830 1870
Wire Wire Line
	2830 1870 3050 1870
Wire Wire Line
	3650 1870 6780 1870
Wire Wire Line
	6780 1870 6780 4090
Wire Wire Line
	6780 4090 6440 4090
$Comp
L 123:R R4
U 1 1 5D7341A8
P 4750 1580
F 0 "R4" H 4820 1626 50  0000 L CNN
F 1 "100k" H 4820 1535 50  0000 L CNN
F 2 "Resistor_THT:R_Axial_DIN0207_L6.3mm_D2.5mm_P7.62mm_Horizontal" V 4680 1580 50  0001 C CNN
F 3 "~" H 4750 1580 50  0001 C CNN
	1    4750 1580
	1    0    0    -1  
$EndComp
Wire Wire Line
	4750 1730 4750 3640
Wire Wire Line
	4750 3640 5440 3640
Wire Wire Line
	5440 3790 5270 3790
Wire Wire Line
	5270 3790 5270 3490
Wire Wire Line
	5270 3490 5440 3490
Wire Wire Line
	9250 1170 9250 1290
Wire Wire Line
	9250 1290 8400 1290
Wire Wire Line
	7410 1290 7410 1430
Wire Wire Line
	7410 1290 5110 1290
Wire Wire Line
	4750 1290 4750 1430
Connection ~ 7410 1290
Wire Wire Line
	4750 1290 4010 1290
Wire Wire Line
	2540 1290 2540 1430
Connection ~ 4750 1290
Wire Wire Line
	2540 1290 2220 1290
Wire Wire Line
	2220 1290 2220 1430
Connection ~ 2540 1290
Wire Wire Line
	4010 1290 4010 2520
Connection ~ 4010 1290
Wire Wire Line
	4010 1290 2540 1290
Wire Wire Line
	5440 4540 5110 4540
Wire Wire Line
	5110 4540 5110 1290
Connection ~ 5110 1290
Wire Wire Line
	5110 1290 4750 1290
$Comp
L 123:C C1
U 1 1 5D7542BB
P 5950 5140
F 0 "C1" V 5698 5140 50  0000 C CNN
F 1 "MKS 100n" V 5789 5140 50  0000 C CNN
F 2 "Capacitor_THT:C_Rect_L7.2mm_W2.5mm_P5.00mm_FKS2_FKP2_MKS2_MKP2" H 5988 4990 50  0001 C CNN
F 3 "~" H 5950 5140 50  0001 C CNN
	1    5950 5140
	0    1    1    0   
$EndComp
Wire Wire Line
	6100 5140 6780 5140
Wire Wire Line
	6780 5140 6780 4390
Wire Wire Line
	6780 4390 6440 4390
Connection ~ 6780 5140
Wire Wire Line
	5800 5140 5110 5140
Wire Wire Line
	5110 5140 5110 4540
Connection ~ 5110 4540
Wire Wire Line
	5110 5600 5110 5140
Connection ~ 5110 5140
$Comp
L 123:C C3
U 1 1 5D75F767
P 9250 2270
F 0 "C3" H 9135 2224 50  0000 R CNN
F 1 "MKS 100n" H 9135 2315 50  0000 R CNN
F 2 "Capacitor_THT:C_Rect_L7.2mm_W2.5mm_P5.00mm_FKS2_FKP2_MKS2_MKP2" H 9288 2120 50  0001 C CNN
F 3 "~" H 9250 2270 50  0001 C CNN
	1    9250 2270
	-1   0    0    1   
$EndComp
Wire Wire Line
	9250 2120 9250 1290
Connection ~ 9250 1290
Wire Wire Line
	9250 2420 9250 2810
Wire Wire Line
	9250 2810 8400 2810
Connection ~ 8400 2810
Wire Wire Line
	8400 2810 8400 3130
Wire Wire Line
	4030 6520 4860 6520
Wire Wire Line
	4030 5890 4030 6520
Connection ~ 4860 6520
Wire Wire Line
	4860 6520 4860 7010
Wire Wire Line
	4860 6520 6780 6520
$Comp
L 123:LiFePo4-1S2A U5
U 1 1 5D795104
P 8760 5800
F 0 "U5" H 8760 6267 50  0000 C CNN
F 1 "LiFePo4-1S2A" H 8760 6176 50  0000 C CNN
F 2 "" H 8710 6200 50  0001 C CNN
F 3 "" H 8710 6200 50  0001 C CNN
	1    8760 5800
	1    0    0    -1  
$EndComp
$Comp
L Device:Battery_Cell BT1
U 1 1 5D7953B9
P 7550 5820
F 0 "BT1" H 7668 5916 50  0000 L CNN
F 1 "LiFePo4-18650" H 7668 5825 50  0000 L CNN
F 2 "" V 7550 5880 50  0001 C CNN
F 3 "~" V 7550 5880 50  0001 C CNN
	1    7550 5820
	1    0    0    -1  
$EndComp
$Comp
L 123:Conn_01x03_Male J4
U 1 1 5D79547A
P 9580 4080
F 0 "J4" V 9640 3850 50  0000 L CNN
F 1 " " H 9686 4267 50  0001 C CNN
F 2 "Connector_PinHeader_2.54mm:PinHeader_1x03_P2.54mm_Vertical" H 9580 4080 50  0001 C CNN
F 3 "~" H 9580 4080 50  0001 C CNN
	1    9580 4080
	0    -1   -1   0   
$EndComp
$Comp
L 123:Conn_01x03_Male J6
U 1 1 5D799F1D
P 10400 4070
F 0 "J6" V 10430 3910 50  0000 R CNN
F 1 " " H 10506 4257 50  0001 C CNN
F 2 "Connector_PinHeader_2.54mm:PinHeader_1x03_P2.54mm_Vertical" H 10400 4070 50  0001 C CNN
F 3 "~" H 10400 4070 50  0001 C CNN
	1    10400 4070
	0    -1   -1   0   
$EndComp
Wire Wire Line
	7550 5620 7550 5490
Wire Wire Line
	7550 5490 7890 5490
Wire Wire Line
	7890 5490 7890 5600
Wire Wire Line
	7890 5600 8210 5600
Wire Wire Line
	7550 5920 7550 6120
Wire Wire Line
	7550 6120 7890 6120
Wire Wire Line
	7890 6120 7890 6000
Wire Wire Line
	7890 6000 8210 6000
$Comp
L 123:Conn_01x03_Female J5
U 1 1 5D7BAE59
P 9580 4080
F 0 "J5" H 9608 4060 50  0001 C TNN
F 1 " " H 9607 4015 50  0001 L CNN
F 2 "" H 9580 4080 50  0001 C CNN
F 3 "~" H 9580 4080 50  0001 C CNN
	1    9580 4080
	0    -1   -1   0   
$EndComp
$Comp
L 123:Conn_01x03_Female J7
U 1 1 5D7BCB59
P 10400 4080
F 0 "J7" H 10428 4060 50  0001 C TNN
F 1 " " H 10427 4015 50  0001 L CNN
F 2 "" H 10400 4080 50  0001 C CNN
F 3 "~" H 10400 4080 50  0001 C CNN
	1    10400 4080
	0    -1   -1   0   
$EndComp
Wire Wire Line
	9310 5600 10400 5600
Wire Wire Line
	10400 5600 10400 4280
Wire Wire Line
	9310 6000 10500 6000
Wire Wire Line
	10500 6000 10500 4280
$Comp
L 123:GND #PWR0106
U 1 1 5D7D6F46
P 9680 3470
F 0 "#PWR0106" H 9680 3316 50  0001 C CNN
F 1 "GND" H 9680 3315 50  0000 C CNN
F 2 "" H 9680 3470 50  0001 C CNN
F 3 "" H 9680 3470 50  0001 C CNN
	1    9680 3470
	-1   0    0    1   
$EndComp
Wire Wire Line
	9680 3470 9680 3730
Wire Wire Line
	9480 3880 9480 3730
Wire Wire Line
	9480 3730 9680 3730
Connection ~ 9680 3730
Wire Wire Line
	9680 3730 9680 3880
Wire Wire Line
	10300 3870 10300 3730
Wire Wire Line
	10300 3730 9680 3730
Wire Wire Line
	10500 3870 10500 3730
Wire Wire Line
	10500 3730 10300 3730
Connection ~ 10300 3730
$Comp
L 123:VCC #PWR0107
U 1 1 5D7E29A8
P 10400 3470
F 0 "#PWR0107" H 10400 3735 50  0001 C CNN
F 1 "VCC" H 10400 3644 50  0000 C CNN
F 2 "" H 10400 3470 50  0001 C CNN
F 3 "" H 10400 3470 50  0001 C CNN
	1    10400 3470
	1    0    0    -1  
$EndComp
Wire Wire Line
	10400 3470 10400 3600
Wire Wire Line
	10400 3600 9580 3600
Wire Wire Line
	9580 3600 9580 3880
Connection ~ 10400 3600
Wire Wire Line
	10400 3600 10400 3870
$Comp
L 123:LiFePo4-Lader-1S2A U4
U 1 1 5D7ECB04
P 8760 4850
F 0 "U4" H 8815 5317 50  0000 C CNN
F 1 "LiFePo4-Lader-1S2A" H 8815 5226 50  0000 C CNN
F 2 "" H 8660 5200 50  0001 C CNN
F 3 "" H 8660 5200 50  0001 C CNN
	1    8760 4850
	1    0    0    -1  
$EndComp
Wire Wire Line
	9310 4650 9580 4650
Wire Wire Line
	9580 4650 9580 4280
Wire Wire Line
	9310 5050 9680 5050
Wire Wire Line
	9680 5050 9680 4280
Wire Wire Line
	8400 1980 8400 1290
Connection ~ 8400 1290
Wire Wire Line
	8400 1290 7410 1290
$Comp
L 123:GND #PWR0108
U 1 1 5D7394D5
P 7220 4170
F 0 "#PWR0108" H 7220 4016 50  0001 C CNN
F 1 "GND" H 7220 4015 50  0000 C CNN
F 2 "" H 7220 4170 50  0001 C CNN
F 3 "" H 7220 4170 50  0001 C CNN
	1    7220 4170
	1    0    0    -1  
$EndComp
Wire Wire Line
	7400 4040 7220 4040
Wire Wire Line
	7220 4040 7220 4170
Wire Wire Line
	7400 3940 6440 3940
$Comp
L 123:Conn_01x02_Male J8
U 1 1 5D752833
P 7600 4040
F 0 "J8" H 7573 3920 50  0000 R CNN
F 1 "Bit-Test" H 7573 4011 50  0000 R CNN
F 2 "Connector_PinHeader_2.54mm:PinHeader_1x02_P2.54mm_Vertical" H 7600 4040 50  0001 C CNN
F 3 "~" H 7600 4040 50  0001 C CNN
	1    7600 4040
	-1   0    0    1   
$EndComp
Wire Wire Line
	5800 5600 5110 5600
Wire Wire Line
	6780 6520 6780 5600
Wire Wire Line
	6780 5600 6780 5140
Connection ~ 6780 5600
Wire Wire Line
	6100 5600 6780 5600
$Comp
L 123:CP C2
U 1 1 5D7543CD
P 5950 5600
F 0 "C2" V 6205 5600 50  0000 C CNN
F 1 "82µ/16V" V 6114 5600 50  0000 C CNN
F 2 "Capacitor_SMD:CP_Elec_8x6.9" H 5988 5450 50  0001 C CNN
F 3 "~" H 5950 5600 50  0001 C CNN
	1    5950 5600
	0    -1   -1   0   
$EndComp
$EndSCHEMATC
